antirebote/simulation/qsim/tateti.msim.vcd
$comment
	File created using the following command:
		vcd file tateti.msim.vcd -direction
$end
$date
	Thu Nov 13 14:07:16 2025
$end
$version
	ModelSim Version 10.1d
$end
$timescale
	1ps
$end
$scope module tateti_vlg_vec_tst $end
$var reg 1 ! clock $end
$var reg 1 " reset $end
$var reg 1 # T $end
$var reg 1 $ x $end
$var wire 1 % z $end
$var wire 1 & sampler $end
$scope module i1 $end
$var wire 1 ' gnd $end
$var wire 1 ( vcc $end
$var wire 1 ) unknown $end
$var tri1 1 * devclrn $end
$var tri1 1 + devpor $end
$var tri1 1 , devoe $end
$var wire 1 - clock~input_o $end
$var wire 1 . clock~inputclkctrl_outclk $end
$var wire 1 / z~output_o $end
$var wire 1 0 reset~input_o $end
$var wire 1 1 x~input_o $end
$var wire 1 2 T~input_o $end
$var wire 1 3 reg_fstate.unoestable~1_combout $end
$var wire 1 4 fstate.unoestable~q $end
$var wire 1 5 reg_fstate.preguntauno~0_combout $end
$var wire 1 6 reg_fstate.preguntauno~1_combout $end
$var wire 1 7 fstate.preguntauno~q $end
$var wire 1 8 reg_fstate.unoestable~0_combout $end
$var wire 1 9 reg_fstate.ceroestable~0_combout $end
$var wire 1 : fstate.ceroestable~q $end
$var wire 1 ; reg_fstate.preguntacero~0_combout $end
$var wire 1 < reg_fstate.preguntacero~1_combout $end
$var wire 1 = fstate.preguntacero~q $end
$var wire 1 > z~0_combout $end
$upscope $end
$upscope $end
$enddefinitions $end
#0
$dumpvars
0!
0"
0#
1$
1%
x&
0'
1(
x)
1*
1+
1,
0-
0.
1/
00
11
02
03
04
05
06
07
08
09
0:
0;
0<
0=
0>
$end
#10000
1!
1-
1.
0&
#20000
0!
0-
0.
1&
#30000
1!
1-
1.
0&
#40000
1#
0!
12
0-
0.
1&
#50000
1!
1-
1.
0&
#60000
0!
0-
0.
1&
#70000
1!
1-
1.
0&
#80000
0#
0!
02
0-
0.
1&
#90000
1!
1-
1.
0&
#100000
0!
0-
0.
1&
#110000
1!
1-
1.
0&
#120000
1#
0!
12
0-
0.
1&
#125000
0$
01
0&
15
13
16
#130000
1!
1-
1.
1&
17
14
18
05
19
06
#140000
0!
0-
0.
0&
#150000
1!
1-
1.
1&
1:
07
1>
08
0/
0%
#160000
0#
0!
02
0-
0.
0&
#170000
1!
1-
1.
1&
#175000
1$
11
0&
1;
09
1<
#180000
0!
0-
0.
1&
#190000
1!
1-
1.
0&
1=
0:
#200000
1#
0$
0!
12
01
0-
0.
1&
0;
18
0<
19
#210000
1!
1-
1.
0&
0=
1:
08
#220000
0!
0-
0.
1&
#230000
1!
1-
1.
0&
#240000
0#
0!
02
0-
0.
1&
#250000
1!
1-
1.
0&
#260000
0!
0-
0.
1&
#270000
1!
1-
1.
0&
#275000
1$
11
1&
1;
09
1<
#280000
1#
0!
12
0-
0.
0&
#290000
1!
1-
1.
1&
1=
0:
0;
18
0<
03
#300000
0$
0!
01
0-
0.
0&
19
13
#310000
1!
1-
1.
1&
0=
1:
08
#320000
0#
0!
02
0-
0.
0&
#325000
1$
11
1&
1;
09
1<
#330000
1!
1-
1.
0&
1=
0:
#340000
0!
0-
0.
1&
#350000
1!
1-
1.
0&
#360000
1#
0!
12
0-
0.
1&
0;
18
0<
03
#370000
1!
1-
1.
0&
0=
04
0>
08
1/
1%
#380000
0!
0-
0.
1&
#390000
1!
1-
1.
0&
#400000
0#
0!
02
0-
0.
1&
#410000
1!
1-
1.
0&
#420000
0!
0-
0.
1&
#430000
1!
1-
1.
0&
#440000
1#
0!
12
0-
0.
1&
#450000
0$
1!
01
1-
1.
0&
15
13
16
#460000
0!
0-
0.
1&
#470000
1!
1-
1.
0&
17
14
18
05
19
06
#475000
1$
11
1&
09
03
#480000
0#
0!
02
0-
0.
0&
08
16
13
#490000
1!
1-
1.
1&
#500000
0!
0-
0.
0&
#510000
1!
1-
1.
1&
#520000
1#
0!
12
0-
0.
0&
18
06
03
#525000
0$
01
1&
19
13
#530000
1!
1-
1.
0&
1:
07
1>
08
0/
0%
#540000
0!
0-
0.
1&
#550000
1!
1-
1.
0&
#560000
0#
0!
02
0-
0.
1&
#570000
1!
1-
1.
0&
#575000
1$
11
1&
1;
09
1<
#580000
0!
0-
0.
0&
#590000
1!
1-
1.
1&
1=
0:
#600000
1#
0!
12
0-
0.
0&
0;
18
0<
03
#610000
1!
1-
1.
1&
0=
04
0>
08
1/
1%
#620000
0!
0-
0.
0&
#630000
1!
1-
1.
1&
#640000
0#
0!
02
0-
0.
0&
#650000
0$
1!
01
1-
1.
1&
15
13
16
#660000
0!
0-
0.
0&
#670000
1!
1-
1.
1&
17
14
05
#675000
1$
11
0&
#680000
1#
0!
12
0-
0.
1&
18
06
03
#690000
1!
1-
1.
0&
07
04
08
#700000
0!
0-
0.
1&
#710000
1!
1-
1.
0&
#720000
0#
0!
02
0-
0.
1&
#730000
1!
1-
1.
0&
#740000
0!
0-
0.
1&
#750000
1!
1-
1.
0&
#760000
1#
0!
12
0-
0.
1&
#770000
1!
1-
1.
0&
#780000
0!
0-
0.
1&
#790000
1!
1-
1.
0&
#800000
0#
0!
02
0-
0.
1&
#810000
1!
1-
1.
0&
#820000
0!
0-
0.
1&
#825000
0$
01
0&
15
13
16
#830000
1!
1-
1.
1&
17
14
05
#840000
1#
0!
12
0-
0.
0&
18
06
19
#850000
1$
1!
11
1-
1.
1&
09
03
1:
07
1>
1;
08
1<
13
0/
0%
#860000
0!
0-
0.
0&
#870000
1!
1-
1.
1&
1=
0:
0;
18
0<
03
#875000
0$
01
0&
19
13
#880000
0#
0!
02
0-
0.
1&
1;
08
1<
09
#890000
1!
1-
1.
0&
#900000
1$
0!
11
0-
0.
1&
#910000
1!
1-
1.
0&
#920000
1#
0!
12
0-
0.
1&
0;
18
0<
03
#930000
1!
1-
1.
0&
0=
04
0>
08
1/
1%
#940000
0!
0-
0.
1&
#950000
0$
1!
01
1-
1.
0&
15
13
16
#960000
0#
0!
02
0-
0.
1&
#970000
1!
1-
1.
0&
17
14
05
#975000
1$
11
1&
#980000
0!
0-
0.
0&
#990000
1!
1-
1.
1&
