antirebote/simulation/qsim/tateti.msim.vcd
$comment
	File created using the following command:
		vcd file tateti.msim.vcd -direction
$end
$date
	Thu Nov 06 15:22:40 2025
$end
$version
	ModelSim Version 10.1d
$end
$timescale
	1ps
$end
$scope module tateti_vlg_vec_tst $end
$var reg 1 ! clock $end
$var reg 1 " reset $end
$var reg 1 # T $end
$var reg 1 $ x $end
$var wire 1 % z $end
$var wire 1 & sampler $end
$scope module i1 $end
$var wire 1 ' gnd $end
$var wire 1 ( vcc $end
$var wire 1 ) unknown $end
$var tri1 1 * devclrn $end
$var tri1 1 + devpor $end
$var tri1 1 , devoe $end
$var wire 1 - clock~input_o $end
$var wire 1 . clock~inputclkctrl_outclk $end
$var wire 1 / z~output_o $end
$var wire 1 0 reset~input_o $end
$var wire 1 1 x~input_o $end
$var wire 1 2 T~input_o $end
$var wire 1 3 reg_fstate.unoestable~1_combout $end
$var wire 1 4 fstate.unoestable~q $end
$var wire 1 5 reg_fstate.preguntauno~0_combout $end
$var wire 1 6 reg_fstate.preguntauno~1_combout $end
$var wire 1 7 fstate.preguntauno~q $end
$var wire 1 8 reg_fstate.unoestable~0_combout $end
$var wire 1 9 reg_fstate.ceroestable~0_combout $end
$var wire 1 : fstate.ceroestable~q $end
$var wire 1 ; reg_fstate.preguntacero~0_combout $end
$var wire 1 < reg_fstate.preguntacero~1_combout $end
$var wire 1 = fstate.preguntacero~q $end
$var wire 1 > z~0_combout $end
$upscope $end
$upscope $end
$enddefinitions $end
#0
$dumpvars
0!
0"
0#
1$
1%
x&
0'
1(
x)
1*
1+
1,
0-
0.
1/
00
11
02
03
04
05
06
07
08
09
0:
0;
0<
0=
0>
$end
#25000
1!
1-
1.
0&
#40000
1#
12
1&
#50000
0!
0-
0.
0&
#75000
1!
1-
1.
1&
#80000
0#
02
0&
#100000
0!
0-
0.
1&
#120000
1#
12
0&
#125000
0$
1!
01
1-
1.
1&
15
13
16
#150000
0!
0-
0.
0&
#160000
0#
02
1&
#175000
1$
1!
11
1-
1.
0&
05
03
06
17
14
16
13
#200000
1#
0$
0!
12
01
0-
0.
1&
18
06
19
#225000
1!
1-
1.
0&
1:
07
1>
08
0/
0%
#240000
0#
02
1&
#250000
0!
0-
0.
0&
#275000
1$
1!
11
1-
1.
1&
1;
09
1<
#280000
1#
12
0&
#300000
0$
0!
01
0-
0.
1&
0;
19
0<
#320000
0#
02
0&
#325000
1$
1!
11
1-
1.
1&
1;
09
1<
#350000
0!
0-
0.
0&
#360000
1#
12
1&
#375000
1!
1-
1.
0&
1=
0:
0;
18
0<
03
#400000
0#
0!
02
0-
0.
1&
1;
08
1<
13
#425000
1!
1-
1.
0&
#440000
1#
12
1&
0;
18
0<
03
#450000
0$
0!
01
0-
0.
0&
19
13
#475000
1$
1!
11
1-
1.
1&
09
03
0=
1:
1;
08
1<
13
#480000
0#
02
0&
#500000
0!
0-
0.
1&
#520000
1#
12
0&
#525000
0$
1!
01
1-
1.
1&
0;
19
0<
1=
0:
18
09
19
#550000
0!
0-
0.
0&
#560000
0#
02
1&
1;
08
1<
09
#575000
1$
1!
11
1-
1.
0&
#600000
1#
0!
12
0-
0.
1&
0;
18
0<
03
#625000
1!
1-
1.
0&
0=
04
0>
08
1/
1%
#640000
0#
02
1&
#650000
0$
0!
01
0-
0.
0&
15
13
16
#675000
1$
1!
11
1-
1.
1&
05
03
06
17
14
16
13
#680000
1#
12
0&
18
06
03
#700000
0!
0-
0.
1&
#720000
0#
02
0&
08
16
13
#725000
1!
1-
1.
1&
#750000
0!
0-
0.
0&
#760000
1#
12
1&
18
06
03
#775000
1!
1-
1.
0&
07
04
08
#800000
0#
0!
02
0-
0.
1&
#825000
0$
1!
01
1-
1.
0&
15
13
16
#840000
1#
12
1&
#850000
1$
0!
11
0-
0.
0&
05
03
06
#875000
0$
1!
01
1-
1.
1&
15
13
16
#880000
0#
02
0&
#900000
1$
0!
11
0-
0.
1&
05
03
06
#920000
1#
12
0&
#925000
1!
1-
1.
1&
#950000
0$
0!
01
0-
0.
0&
15
13
16
#960000
0#
02
1&
#975000
1$
1!
11
1-
1.
0&
05
03
06
17
14
16
13
#1000000
1#
0!
12
0-
0.
1&
18
06
03
#1025000
1!
1-
1.
0&
07
04
08
#1040000
0#
02
1&
#1050000
0!
0-
0.
0&
#1075000
1!
1-
1.
1&
#1080000
1#
12
0&
#1100000
0$
0!
01
0-
0.
1&
15
13
16
#1120000
0#
02
0&
#1125000
1!
1-
1.
1&
17
14
05
#1150000
0!
0-
0.
0&
#1160000
1#
12
1&
18
06
19
#1175000
1!
1-
1.
0&
1:
07
1>
08
0/
0%
#1200000
1$
0#
0!
11
02
0-
0.
1&
1;
09
1<
#1225000
1!
1-
1.
0&
1=
0:
#1240000
1#
12
1&
0;
18
0<
03
#1250000
0$
0!
01
0-
0.
0&
19
13
#1275000
1$
1!
11
1-
1.
1&
09
03
0=
1:
1;
08
1<
13
#1280000
0#
02
0&
#1300000
0$
0!
01
0-
0.
1&
0;
19
0<
#1320000
1#
12
0&
#1325000
1$
1!
11
1-
1.
1&
1;
09
1<
#1350000
0!
0-
0.
0&
#1360000
0#
02
1&
#1375000
1!
1-
1.
0&
1=
0:
#1400000
0$
1#
0!
01
12
0-
0.
1&
0;
18
0<
19
#1425000
1$
1!
11
1-
1.
0&
09
03
0=
1:
1;
08
1<
13
#1440000
0#
02
1&
#1450000
0$
0!
01
0-
0.
0&
0;
19
0<
#1475000
1!
1-
1.
1&
#1480000
1#
12
0&
#1500000
1$
0!
11
0-
0.
1&
1;
09
1<
#1520000
0#
02
0&
#1525000
0$
1!
01
1-
1.
1&
0;
19
0<
1=
0:
1;
09
1<
#1550000
0!
0-
0.
0&
#1560000
1#
12
1&
0;
18
0<
19
#1575000
1$
1!
11
1-
1.
0&
09
03
0=
1:
1;
08
1<
13
#1600000
0#
0!
02
0-
0.
1&
#1625000
0$
1!
01
1-
1.
0&
0;
19
0<
1=
0:
1;
09
1<
#1640000
1#
12
1&
0;
18
0<
19
#1650000
1$
0!
11
0-
0.
0&
09
03
#1675000
0$
1!
01
1-
1.
1&
19
13
0=
04
0>
08
15
09
16
1/
1%
#1680000
0#
02
0&
#1700000
0!
0-
0.
1&
#1720000
1#
12
0&
#1725000
1$
1!
11
1-
1.
1&
05
03
06
17
14
18
13
03
#1750000
0!
0-
0.
0&
#1760000
0#
02
1&
08
16
13
#1775000
1!
1-
1.
0&
#1800000
0$
1#
0!
01
12
0-
0.
1&
18
06
19
#1825000
1$
1!
11
1-
1.
0&
09
03
1:
07
1>
1;
08
1<
13
0/
0%
#1840000
0#
02
1&
#1850000
0$
0!
01
0-
0.
0&
0;
19
0<
#1875000
1!
1-
1.
1&
#1880000
1#
12
0&
#1900000
0!
0-
0.
1&
#1920000
0#
02
0&
#1925000
1!
1-
1.
1&
#1950000
1$
0!
11
0-
0.
0&
1;
09
1<
#1960000
1#
12
1&
#1975000
0$
1!
01
1-
1.
0&
0;
19
0<
1=
0:
18
09
19
#2000000
0#
0!
02
0-
0.
1&
1;
08
1<
09
#2025000
1!
1-
1.
0&
#2040000
1#
12
1&
0;
18
0<
19
#2050000
1$
0!
11
0-
0.
0&
09
03
#2075000
1!
1-
1.
1&
0=
04
0>
08
1/
1%
#2080000
0#
02
0&
#2100000
0$
0!
01
0-
0.
1&
15
13
16
#2120000
1#
12
0&
#2125000
1$
1!
11
1-
1.
1&
05
03
06
17
14
18
13
03
#2150000
0!
0-
0.
0&
#2160000
0#
02
1&
08
16
13
#2175000
1!
1-
1.
0&
#2200000
0$
1#
0!
01
12
0-
0.
1&
18
06
19
#2225000
1$
1!
11
1-
1.
0&
09
03
1:
07
1>
1;
08
1<
13
0/
0%
#2240000
0#
02
1&
#2250000
0$
0!
01
0-
0.
0&
0;
19
0<
#2275000
1!
1-
1.
1&
#2280000
1#
12
0&
#2300000
0!
0-
0.
1&
#2320000
0#
02
0&
#2325000
1$
1!
11
1-
1.
1&
1;
09
1<
#2350000
0$
0!
01
0-
0.
0&
0;
19
0<
#2360000
1#
12
1&
#2375000
1$
1!
11
1-
1.
0&
1;
09
1<
#2400000
0#
0$
0!
02
01
0-
0.
1&
0;
19
0<
#2425000
1!
1-
1.
0&
#2440000
1#
12
1&
#2450000
1$
0!
11
0-
0.
0&
1;
09
1<
#2475000
1!
1-
1.
1&
1=
0:
0;
18
0<
03
#2480000
0#
02
0&
1;
08
1<
13
#2500000
0$
0!
01
0-
0.
1&
#2520000
1#
12
0&
0;
18
0<
19
#2525000
1$
1!
11
1-
1.
1&
09
03
0=
1:
1;
08
1<
13
#2550000
0$
0!
01
0-
0.
0&
0;
19
0<
#2560000
0#
02
1&
#2575000
1$
1!
11
1-
1.
0&
1;
09
1<
#2600000
1#
0$
0!
12
01
0-
0.
1&
0;
19
0<
#2625000
1$
1!
11
1-
1.
0&
1;
09
1<
#2640000
0#
02
1&
#2650000
0!
0-
0.
0&
#2675000
1!
1-
1.
1&
1=
0:
#2680000
1#
12
0&
0;
18
0<
03
#2700000
0!
0-
0.
1&
#2720000
0#
02
0&
1;
08
1<
13
#2725000
1!
1-
1.
1&
#2750000
0$
0!
01
0-
0.
0&
#2760000
1#
12
1&
0;
18
0<
19
#2775000
1$
1!
11
1-
1.
0&
09
03
0=
1:
1;
08
1<
13
#2800000
0#
0$
0!
02
01
0-
0.
1&
0;
19
0<
#2825000
1$
1!
11
1-
1.
0&
1;
09
1<
#2840000
1#
12
1&
#2850000
0$
0!
01
0-
0.
0&
0;
19
0<
#2875000
1$
1!
11
1-
1.
1&
1;
09
1<
#2880000
0#
02
0&
#2900000
0!
0-
0.
1&
#2920000
1#
12
0&
#2925000
1!
1-
1.
1&
1=
0:
0;
18
0<
03
#2950000
0!
0-
0.
0&
#2960000
0#
02
1&
1;
08
1<
13
#2975000
1!
1-
1.
0&
#3000000
1#
0!
12
0-
0.
1&
0;
18
0<
03
#3025000
0$
1!
01
1-
1.
0&
19
13
0=
04
0>
08
15
09
16
1/
1%
#3040000
0#
02
1&
#3050000
0!
0-
0.
0&
#3075000
1$
1!
11
1-
1.
1&
05
03
06
17
14
16
13
#3080000
1#
12
0&
18
06
03
#3100000
0!
0-
0.
1&
#3120000
0#
02
0&
08
16
13
#3125000
1!
1-
1.
1&
#3150000
0!
0-
0.
0&
#3160000
1#
12
1&
18
06
03
#3175000
0$
1!
01
1-
1.
0&
19
13
07
04
08
15
09
16
#3200000
0#
1$
0!
02
11
0-
0.
1&
05
03
06
#3225000
0$
1!
01
1-
1.
0&
15
13
16
#3240000
1#
12
1&
#3250000
0!
0-
0.
0&
#3275000
1$
1!
11
1-
1.
1&
05
03
06
17
14
18
13
03
#3280000
0#
02
0&
08
16
13
#3300000
0$
0!
01
0-
0.
1&
#3320000
1#
12
0&
18
06
19
#3325000
1$
1!
11
1-
1.
1&
09
03
1:
07
1>
1;
08
1<
13
0/
0%
#3350000
0$
0!
01
0-
0.
0&
0;
19
0<
#3360000
0#
02
1&
#3375000
1$
1!
11
1-
1.
0&
1;
09
1<
#3400000
1#
0!
12
0-
0.
1&
#3425000
0$
1!
01
1-
1.
0&
0;
19
0<
1=
0:
18
09
19
#3440000
0#
02
1&
1;
08
1<
09
#3450000
1$
0!
11
0-
0.
0&
#3475000
1!
1-
1.
1&
#3480000
1#
12
0&
0;
18
0<
03
#3500000
0!
0-
0.
1&
#3520000
0#
02
0&
1;
08
1<
13
#3525000
0$
1!
01
1-
1.
1&
#3550000
0!
0-
0.
0&
#3560000
1#
12
1&
0;
18
0<
19
#3575000
1!
1-
1.
0&
0=
1:
08
#3600000
1$
0#
0!
11
02
0-
0.
1&
1;
09
1<
#3625000
1!
1-
1.
0&
1=
0:
#3640000
1#
12
1&
0;
18
0<
03
#3650000
0$
0!
01
0-
0.
0&
19
13
#3675000
1$
1!
11
1-
1.
1&
09
03
0=
1:
1;
08
1<
13
#3680000
0#
02
0&
#3700000
0!
0-
0.
1&
#3720000
1#
12
0&
#3725000
0$
1!
01
1-
1.
1&
0;
19
0<
1=
0:
18
09
19
#3750000
0!
0-
0.
0&
#3760000
0#
02
1&
1;
08
1<
09
#3775000
1$
1!
11
1-
1.
0&
#3800000
1#
0!
12
0-
0.
1&
0;
18
0<
03
#3825000
1!
1-
1.
0&
0=
04
0>
08
1/
1%
#3840000
0#
02
1&
#3850000
0!
0-
0.
0&
#3875000
1!
1-
1.
1&
#3880000
1#
12
0&
#3900000
0!
0-
0.
1&
#3920000
0#
02
0&
#3925000
1!
1-
1.
1&
#3950000
0$
0!
01
0-
0.
0&
15
13
16
#3960000
1#
12
1&
#3975000
1!
1-
1.
0&
17
14
18
05
19
06
#4000000
1$
0#
0!
11
02
0-
0.
1&
09
03
08
16
13
#4025000
1!
1-
1.
0&
#4040000
1#
12
1&
18
06
03
#4050000
0!
0-
0.
0&
#4075000
0$
1!
01
1-
1.
1&
19
13
07
04
08
15
09
16
#4080000
0#
02
0&
#4100000
1$
0!
11
0-
0.
1&
05
03
06
#4120000
1#
12
0&
#4125000
0$
1!
01
1-
1.
1&
15
13
16
#4150000
0!
0-
0.
0&
#4160000
0#
02
1&
#4175000
1$
1!
11
1-
1.
0&
05
03
06
17
14
16
13
#4200000
1#
0!
12
0-
0.
1&
18
06
03
#4225000
1!
1-
1.
0&
07
04
08
#4240000
0#
02
1&
#4250000
0!
0-
0.
0&
#4275000
1!
1-
1.
1&
#4280000
1#
12
0&
#4300000
0!
0-
0.
1&
#4320000
0#
02
0&
#4325000
1!
1-
1.
1&
#4350000
0$
0!
01
0-
0.
0&
15
13
16
#4360000
1#
12
1&
#4375000
1$
1!
11
1-
1.
0&
05
03
06
17
14
18
13
03
#4400000
0#
0!
02
0-
0.
1&
08
16
13
#4425000
0$
1!
01
1-
1.
0&
#4440000
1#
12
1&
18
06
19
#4450000
0!
0-
0.
0&
#4475000
1$
1!
11
1-
1.
1&
09
03
1:
07
1>
1;
08
1<
13
0/
0%
#4480000
0#
02
0&
#4500000
0!
0-
0.
1&
#4520000
1#
12
0&
#4525000
1!
1-
1.
1&
1=
0:
0;
18
0<
03
#4550000
0$
0!
01
0-
0.
0&
19
13
#4560000
0#
02
1&
1;
08
1<
09
#4575000
1$
1!
11
1-
1.
0&
#4600000
1#
0$
0!
12
01
0-
0.
1&
0;
18
0<
19
#4625000
1$
1!
11
1-
1.
0&
09
03
0=
1:
1;
08
1<
13
#4640000
0#
02
1&
#4650000
0$
0!
01
0-
0.
0&
0;
19
0<
#4675000
1$
1!
11
1-
1.
1&
1;
09
1<
#4680000
1#
12
0&
#4700000
0$
0!
01
0-
0.
1&
0;
19
0<
#4720000
0#
02
0&
#4725000
1!
1-
1.
1&
#4750000
1$
0!
11
0-
0.
0&
1;
09
1<
#4760000
1#
12
1&
#4775000
0$
1!
01
1-
1.
0&
0;
19
0<
1=
0:
18
09
19
#4800000
0#
0!
02
0-
0.
1&
1;
08
1<
09
#4825000
1$
1!
11
1-
1.
0&
#4840000
1#
12
1&
0;
18
0<
03
#4850000
0!
0-
0.
0&
#4875000
1!
1-
1.
1&
0=
04
0>
08
1/
1%
#4880000
0#
02
0&
#4900000
0!
0-
0.
1&
#4920000
1#
12
0&
#4925000
0$
1!
01
1-
1.
1&
15
13
16
#4950000
1$
0!
11
0-
0.
0&
05
03
06
#4960000
0#
02
1&
#4975000
1!
1-
1.
0&
#5000000
1#
0!
12
0-
0.
1&
#5025000
0$
1!
01
1-
1.
0&
15
13
16
#5040000
0#
02
1&
#5050000
1$
0!
11
0-
0.
0&
05
03
06
#5075000
1!
1-
1.
1&
#5080000
1#
12
0&
#5100000
0!
0-
0.
1&
#5120000
0#
02
0&
#5125000
1!
1-
1.
1&
#5150000
0$
0!
01
0-
0.
0&
15
13
16
#5160000
1#
12
1&
#5175000
1!
1-
1.
0&
17
14
18
05
19
06
#5200000
0#
0!
02
0-
0.
1&
08
16
09
#5225000
1$
1!
11
1-
1.
0&
#5240000
1#
12
1&
18
06
03
#5250000
0!
0-
0.
0&
#5275000
1!
1-
1.
1&
07
04
08
#5280000
0#
02
0&
#5300000
0!
0-
0.
1&
#5320000
1#
12
0&
#5325000
1!
1-
1.
1&
#5350000
0!
0-
0.
0&
#5360000
0#
02
1&
#5375000
1!
1-
1.
0&
#5400000
0$
1#
0!
01
12
0-
0.
1&
15
13
16
#5425000
1$
1!
11
1-
1.
0&
05
03
06
17
14
18
13
03
#5440000
0#
02
1&
08
16
13
#5450000
0$
0!
01
0-
0.
0&
#5475000
1$
1!
11
1-
1.
1&
#5480000
1#
12
0&
18
06
03
#5500000
0$
0!
01
0-
0.
1&
19
13
#5520000
0#
02
0&
08
16
09
#5525000
1$
1!
11
1-
1.
1&
#5550000
0$
0!
01
0-
0.
0&
#5560000
1#
12
1&
18
06
19
#5575000
1!
1-
1.
0&
1:
07
1>
08
0/
0%
#5600000
0#
0!
02
0-
0.
1&
#5625000
1$
1!
11
1-
1.
0&
1;
09
1<
#5640000
1#
12
1&
#5650000
0!
0-
0.
0&
#5675000
0$
1!
01
1-
1.
1&
0;
19
0<
1=
0:
18
09
19
#5680000
0#
02
0&
1;
08
1<
09
#5700000
0!
0-
0.
1&
#5720000
1#
12
0&
0;
18
0<
19
#5725000
1!
1-
1.
1&
0=
1:
08
#5750000
1$
0!
11
0-
0.
0&
1;
09
1<
#5760000
0#
02
1&
#5775000
1!
1-
1.
0&
1=
0:
#5800000
1#
0!
12
0-
0.
1&
0;
18
0<
03
#5825000
0$
1!
01
1-
1.
0&
19
13
0=
04
0>
08
15
09
16
1/
1%
#5840000
0#
02
1&
#5850000
0!
0-
0.
0&
#5875000
1!
1-
1.
1&
17
14
05
#5880000
1#
12
0&
18
06
19
#5900000
1$
0!
11
0-
0.
1&
09
03
#5920000
0#
02
0&
08
16
13
#5925000
1!
1-
1.
1&
#5950000
0!
0-
0.
0&
#5960000
1#
12
1&
18
06
03
#5975000
1!
1-
1.
0&
07
04
08
#6000000
0$
0#
0!
01
02
0-
0.
1&
15
13
16
#6025000
1!
1-
1.
0&
17
14
05
#6040000
1#
12
1&
18
06
19
#6050000
1$
0!
11
0-
0.
0&
09
03
#6075000
0$
1!
01
1-
1.
1&
19
13
07
04
08
15
09
16
#6080000
0#
02
0&
#6100000
1$
0!
11
0-
0.
1&
05
03
06
#6120000
1#
12
0&
#6125000
1!
1-
1.
1&
#6150000
0$
0!
01
0-
0.
0&
15
13
16
#6160000
0#
02
1&
#6175000
1!
1-
1.
0&
17
14
05
#6200000
1#
0!
12
0-
0.
1&
18
06
19
#6225000
1!
1-
1.
0&
1:
07
1>
08
0/
0%
#6240000
0#
02
1&
#6250000
0!
0-
0.
0&
#6275000
1!
1-
1.
1&
#6280000
1#
12
0&
#6300000
1$
0!
11
0-
0.
1&
1;
09
1<
#6320000
0#
02
0&
#6325000
0$
1!
01
1-
1.
1&
0;
19
0<
1=
0:
1;
09
1<
#6350000
1$
0!
11
0-
0.
0&
#6360000
1#
12
1&
0;
18
0<
03
#6375000
0$
1!
01
1-
1.
0&
19
13
0=
04
0>
08
15
09
16
1/
1%
#6400000
0#
1$
0!
02
11
0-
0.
1&
05
03
06
#6425000
0$
1!
01
1-
1.
0&
15
13
16
#6440000
1#
12
1&
#6450000
1$
0!
11
0-
0.
0&
05
03
06
#6475000
0$
1!
01
1-
1.
1&
15
13
16
#6480000
0#
02
0&
#6500000
1$
0!
11
0-
0.
1&
05
03
06
#6520000
1#
12
0&
#6525000
0$
1!
01
1-
1.
1&
15
13
16
#6550000
0!
0-
0.
0&
#6560000
0#
02
1&
#6575000
1$
1!
11
1-
1.
0&
05
03
06
17
14
16
13
#6600000
1#
0!
12
0-
0.
1&
18
06
03
#6625000
1!
1-
1.
0&
07
04
08
#6640000
0#
02
1&
#6650000
0!
0-
0.
0&
#6675000
1!
1-
1.
1&
#6680000
1#
12
0&
#6700000
0$
0!
01
0-
0.
1&
15
13
16
#6720000
0#
02
0&
#6725000
1!
1-
1.
1&
17
14
05
#6750000
0!
0-
0.
0&
#6760000
1#
12
1&
18
06
19
#6775000
1!
1-
1.
0&
1:
07
1>
08
0/
0%
#6800000
0#
0!
02
0-
0.
1&
#6825000
1!
1-
1.
0&
#6840000
1#
12
1&
#6850000
1$
0!
11
0-
0.
0&
1;
09
1<
#6875000
0$
1!
01
1-
1.
1&
0;
19
0<
1=
0:
18
09
19
#6880000
0#
02
0&
1;
08
1<
09
#6900000
0!
0-
0.
1&
#6920000
1#
12
0&
0;
18
0<
19
#6925000
1$
1!
11
1-
1.
1&
09
03
0=
1:
1;
08
1<
13
#6950000
0$
0!
01
0-
0.
0&
0;
19
0<
#6960000
0#
02
1&
#6975000
1!
1-
1.
0&
#7000000
1$
1#
0!
11
12
0-
0.
1&
1;
09
1<
#7025000
1!
1-
1.
0&
1=
0:
0;
18
0<
03
#7040000
0#
02
1&
1;
08
1<
13
#7050000
0$
0!
01
0-
0.
0&
#7075000
1!
1-
1.
1&
#7080000
1#
12
0&
0;
18
0<
19
#7100000
0!
0-
0.
1&
#7120000
0#
02
0&
1;
08
1<
09
#7125000
1!
1-
1.
1&
#7150000
1$
0!
11
0-
0.
0&
#7160000
1#
12
1&
0;
18
0<
03
#7175000
0$
1!
01
1-
1.
0&
19
13
0=
04
0>
08
15
09
16
1/
1%
#7200000
0#
1$
0!
02
11
0-
0.
1&
05
03
06
#7225000
0$
1!
01
1-
1.
0&
15
13
16
#7240000
1#
12
1&
#7250000
1$
0!
11
0-
0.
0&
05
03
06
#7275000
1!
1-
1.
1&
#7280000
0#
02
0&
#7300000
0$
0!
01
0-
0.
1&
15
13
16
#7320000
1#
12
0&
#7325000
1$
1!
11
1-
1.
1&
05
03
06
17
14
18
13
03
#7350000
0!
0-
0.
0&
#7360000
0#
02
1&
08
16
13
#7375000
0$
1!
01
1-
1.
0&
#7400000
1#
1$
0!
12
11
0-
0.
1&
18
06
03
#7425000
1!
1-
1.
0&
07
04
08
#7440000
0#
02
1&
#7450000
0$
0!
01
0-
0.
0&
15
13
16
#7475000
1!
1-
1.
1&
17
14
05
#7480000
1#
12
0&
18
06
19
#7500000
0!
0-
0.
1&
#7520000
0#
02
0&
08
16
09
#7525000
1$
1!
11
1-
1.
1&
#7550000
0$
0!
01
0-
0.
0&
#7560000
1#
12
1&
18
06
19
#7575000
1$
1!
11
1-
1.
0&
09
03
1:
07
1>
1;
08
1<
13
0/
0%
#7600000
0#
0!
02
0-
0.
1&
#7625000
1!
1-
1.
0&
1=
0:
#7640000
1#
12
1&
0;
18
0<
03
#7650000
0$
0!
01
0-
0.
0&
19
13
#7675000
1$
1!
11
1-
1.
1&
09
03
0=
1:
1;
08
1<
13
#7680000
0#
02
0&
#7700000
0$
0!
01
0-
0.
1&
0;
19
0<
#7720000
1#
12
0&
#7725000
1!
1-
1.
1&
#7750000
0!
0-
0.
0&
#7760000
0#
02
1&
#7775000
1!
1-
1.
0&
#7800000
1$
1#
0!
11
12
0-
0.
1&
1;
09
1<
#7825000
0$
1!
01
1-
1.
0&
0;
19
0<
1=
0:
18
09
19
#7840000
0#
02
1&
1;
08
1<
09
#7850000
0!
0-
0.
0&
#7875000
1!
1-
1.
1&
#7880000
1#
12
0&
0;
18
0<
19
#7900000
0!
0-
0.
1&
#7920000
0#
02
0&
1;
08
1<
09
#7925000
1!
1-
1.
1&
#7950000
1$
0!
11
0-
0.
0&
#7960000
1#
12
1&
0;
18
0<
03
#7975000
0$
1!
01
1-
1.
0&
19
13
0=
04
0>
08
15
09
16
1/
1%
#8000000
0#
1$
0!
02
11
0-
0.
1&
05
03
06
#8025000
1!
1-
1.
0&
#8040000
1#
12
1&
#8050000
0$
0!
01
0-
0.
0&
15
13
16
#8075000
1!
1-
1.
1&
17
14
18
05
19
06
#8080000
0#
02
0&
08
16
09
#8100000
1$
0!
11
0-
0.
1&
#8120000
1#
12
0&
18
06
03
#8125000
0$
1!
01
1-
1.
1&
19
13
07
04
08
15
09
16
#8150000
1$
0!
11
0-
0.
0&
05
03
06
#8160000
0#
02
1&
#8175000
0$
1!
01
1-
1.
0&
15
13
16
#8200000
1#
0!
12
0-
0.
1&
#8225000
1$
1!
11
1-
1.
0&
05
03
06
17
14
18
13
03
#8240000
0#
02
1&
08
16
13
#8250000
0!
0-
0.
0&
#8275000
0$
1!
01
1-
1.
1&
#8280000
1#
12
0&
18
06
19
#8300000
1$
0!
11
0-
0.
1&
09
03
#8320000
0#
02
0&
08
16
13
#8325000
1!
1-
1.
1&
#8350000
0!
0-
0.
0&
#8360000
1#
12
1&
18
06
03
#8375000
0$
1!
01
1-
1.
0&
19
13
07
04
08
15
09
16
#8400000
0#
0!
02
0-
0.
1&
#8425000
1!
1-
1.
0&
17
14
05
#8440000
1#
12
1&
18
06
19
#8450000
1$
0!
11
0-
0.
0&
09
03
#8475000
0$
1!
01
1-
1.
1&
19
13
07
04
08
15
09
16
#8480000
0#
02
0&
#8500000
0!
0-
0.
1&
#8520000
1#
12
0&
#8525000
1!
1-
1.
1&
17
14
18
05
19
06
#8550000
0!
0-
0.
0&
#8560000
0#
02
1&
08
16
09
#8575000
1$
1!
11
1-
1.
0&
#8600000
1#
0$
0!
12
01
0-
0.
1&
18
06
19
#8625000
1!
1-
1.
0&
1:
07
1>
08
0/
0%
#8640000
0#
02
1&
#8650000
1$
0!
11
0-
0.
0&
1;
09
1<
#8675000
0$
1!
01
1-
1.
1&
0;
19
0<
1=
0:
1;
09
1<
#8680000
1#
12
0&
0;
18
0<
19
#8700000
0!
0-
0.
1&
#8720000
0#
02
0&
1;
08
1<
09
#8725000
1$
1!
11
1-
1.
1&
#8750000
0!
0-
0.
0&
#8760000
1#
12
1&
0;
18
0<
03
#8775000
0$
1!
01
1-
1.
0&
19
13
0=
04
0>
08
15
09
16
1/
1%
#8800000
0#
1$
0!
02
11
0-
0.
1&
05
03
06
#8825000
0$
1!
01
1-
1.
0&
15
13
16
#8840000
1#
12
1&
#8850000
1$
0!
11
0-
0.
0&
05
03
06
#8875000
1!
1-
1.
1&
#8880000
0#
02
0&
#8900000
0!
0-
0.
1&
#8920000
1#
12
0&
#8925000
1!
1-
1.
1&
#8950000
0$
0!
01
0-
0.
0&
15
13
16
#8960000
0#
02
1&
#8975000
1$
1!
11
1-
1.
0&
05
03
06
17
14
16
13
#9000000
1#
0!
12
0-
0.
1&
18
06
03
#9025000
0$
1!
01
1-
1.
0&
19
13
07
04
08
15
09
16
#9040000
0#
02
1&
#9050000
1$
0!
11
0-
0.
0&
05
03
06
#9075000
1!
1-
1.
1&
#9080000
1#
12
0&
#9100000
0$
0!
01
0-
0.
1&
15
13
16
#9120000
0#
02
0&
#9125000
1$
1!
11
1-
1.
1&
05
03
06
17
14
16
13
#9150000
0!
0-
0.
0&
#9160000
1#
12
1&
18
06
03
#9175000
1!
1-
1.
0&
07
04
08
#9200000
0#
0!
02
0-
0.
1&
#9225000
0$
1!
01
1-
1.
0&
15
13
16
#9240000
1#
12
1&
#9250000
0!
0-
0.
0&
#9275000
1!
1-
1.
1&
17
14
18
05
19
06
#9280000
0#
02
0&
08
16
09
#9300000
0!
0-
0.
1&
#9320000
1#
12
0&
18
06
19
#9325000
1!
1-
1.
1&
1:
07
1>
08
0/
0%
#9350000
0!
0-
0.
0&
#9360000
0#
02
1&
#9375000
1$
1!
11
1-
1.
0&
1;
09
1<
#9400000
1#
0!
12
0-
0.
1&
#9425000
1!
1-
1.
0&
1=
0:
0;
18
0<
03
#9440000
0#
02
1&
1;
08
1<
13
#9450000
0$
0!
01
0-
0.
0&
#9475000
1!
1-
1.
1&
#9480000
1#
12
0&
0;
18
0<
19
#9500000
1$
0!
11
0-
0.
1&
09
03
#9520000
0#
02
0&
1;
08
1<
13
#9525000
0$
1!
01
1-
1.
1&
#9550000
1$
0!
11
0-
0.
0&
#9560000
1#
12
1&
0;
18
0<
03
#9575000
1!
1-
1.
0&
0=
04
0>
08
1/
1%
#9600000
0#
0!
02
0-
0.
1&
#9625000
1!
1-
1.
0&
#9640000
1#
12
1&
#9650000
0$
0!
01
0-
0.
0&
15
13
16
#9675000
1!
1-
1.
1&
17
14
18
05
19
06
#9680000
0#
02
0&
08
16
09
#9700000
0!
0-
0.
1&
#9720000
1#
12
0&
18
06
19
#9725000
1!
1-
1.
1&
1:
07
1>
08
0/
0%
#9750000
1$
0!
11
0-
0.
0&
1;
09
1<
#9760000
0#
02
1&
#9775000
1!
1-
1.
0&
1=
0:
#9800000
0$
1#
0!
01
12
0-
0.
1&
0;
18
0<
19
#9825000
1!
1-
1.
0&
0=
1:
08
#9840000
0#
02
1&
#9850000
1$
0!
11
0-
0.
0&
1;
09
1<
#9875000
1!
1-
1.
1&
1=
0:
#9880000
1#
12
0&
0;
18
0<
03
#9900000
0$
0!
01
0-
0.
1&
19
13
#9920000
0#
02
0&
1;
08
1<
09
#9925000
1$
1!
11
1-
1.
1&
#9950000
0!
0-
0.
0&
#9960000
1#
12
1&
0;
18
0<
03
#9975000
0$
1!
01
1-
1.
0&
19
13
0=
04
0>
08
15
09
16
1/
1%
#10000000
0#
0!
02
0-
0.
1&
#10025000
1!
1-
1.
0&
17
14
05
#10040000
1#
12
1&
18
06
19
#10050000
0!
0-
0.
0&
#10075000
1!
1-
1.
1&
1:
07
1>
08
0/
0%
#10080000
0#
02
0&
#10100000
0!
0-
0.
1&
#10120000
1#
12
0&
#10125000
1!
1-
1.
1&
#10150000
0!
0-
0.
0&
#10160000
0#
02
1&
#10175000
1!
1-
1.
0&
#10200000
1#
0!
12
0-
0.
1&
#10225000
1$
1!
11
1-
1.
0&
1;
09
1<
#10240000
0#
02
1&
#10250000
0!
0-
0.
0&
#10275000
0$
1!
01
1-
1.
1&
0;
19
0<
1=
0:
1;
09
1<
