matrizbotones/simulation/qsim/matrizbotones.msim.vcd
$comment
	File created using the following command:
		vcd file matrizbotones.msim.vcd -direction
$end
$date
	Mon Nov 24 12:32:56 2025
$end
$version
	ModelSim Version 10.1d
$end
$timescale
	1ps
$end
$scope module Block1_vlg_vec_tst $end
$var reg 1 ! clk $end
$var reg 1 " x0 $end
$var reg 1 # x1 $end
$var reg 1 $ x2 $end
$var reg 1 % x3 $end
$var wire 1 & c0 $end
$var wire 1 ' c1 $end
$var wire 1 ( c2 $end
$var wire 1 ) c3 $end
$var wire 1 * p0 $end
$var wire 1 + p1 $end
$var wire 1 , p2 $end
$var wire 1 - p3 $end
$var wire 1 . z0 $end
$var wire 1 / z1 $end
$var wire 1 0 z2 $end
$var wire 1 1 z3 $end
$var wire 1 2 sampler $end
$scope module i1 $end
$var wire 1 3 gnd $end
$var wire 1 4 vcc $end
$var wire 1 5 unknown $end
$var tri1 1 6 devclrn $end
$var tri1 1 7 devpor $end
$var tri1 1 8 devoe $end
$var wire 1 9 inst10|fstate.preguntacero~q $end
$var wire 1 : inst9|fstate.preguntacero~q $end
$var wire 1 ; inst10|reg_fstate.preguntacero~0_combout $end
$var wire 1 < inst9|reg_fstate.preguntacero~0_combout $end
$var wire 1 = inst|process_1~0_combout $end
$var wire 1 > inst|Selector3~0_combout $end
$var wire 1 ? inst|process_1~2_combout $end
$var wire 1 @ inst7|altpll_component|auto_generated|wire_pll1_clk[0]~clkctrl_outclk $end
$var wire 1 A x3~input_o $end
$var wire 1 B clk~input_o $end
$var wire 1 C inst7|altpll_component|auto_generated|wire_pll1_fbout $end
$var wire 1 D inst7|altpll_component|auto_generated|wire_pll1_locked $end
$var wire 1 E tat|reg_fstate.unoestable~0_combout $end
$var wire 1 F tat|fstate.unoestable~q $end
$var wire 1 G tat|reg_fstate.ceroestable~0_combout $end
$var wire 1 H tat|fstate.ceroestable~q $end
$var wire 1 I inst|Selector2~0_combout $end
$var wire 1 J x1~input_o $end
$var wire 1 K inst10|reg_fstate.unoestable~0_combout $end
$var wire 1 L inst10|fstate.unoestable~q $end
$var wire 1 M inst10|reg_fstate.ceroestable~0_combout $end
$var wire 1 N inst10|fstate.ceroestable~q $end
$var wire 1 O inst10|z~0_combout $end
$var wire 1 P tat|z~0_combout $end
$var wire 1 Q x0~input_o $end
$var wire 1 R inst11|reg_fstate.unoestable~0_combout $end
$var wire 1 S inst11|fstate.unoestable~q $end
$var wire 1 T inst11|reg_fstate.ceroestable~0_combout $end
$var wire 1 U inst11|fstate.ceroestable~q $end
$var wire 1 V inst11|reg_fstate.preguntacero~0_combout $end
$var wire 1 W inst11|fstate.preguntacero~q $end
$var wire 1 X inst11|z~0_combout $end
$var wire 1 Y inst|process_1~1_combout $end
$var wire 1 Z inst|Selector3~1_combout $end
$var wire 1 [ inst|fstate.In1~q $end
$var wire 1 \ inst|Selector0~0_combout $end
$var wire 1 ] tat|reg_fstate.preguntacero~0_combout $end
$var wire 1 ^ tat|fstate.preguntacero~q $end
$var wire 1 _ inst|Selector6~2_combout $end
$var wire 1 ` inst|Selector0~1_combout $end
$var wire 1 a inst|fstate.In2~q $end
$var wire 1 b x2~input_o $end
$var wire 1 c inst9|reg_fstate.unoestable~0_combout $end
$var wire 1 d inst9|fstate.unoestable~q $end
$var wire 1 e inst9|reg_fstate.ceroestable~0_combout $end
$var wire 1 f inst9|fstate.ceroestable~q $end
$var wire 1 g inst9|z~0_combout $end
$var wire 1 h inst|Selector2~1_combout $end
$var wire 1 i inst|fstate.In3~q $end
$var wire 1 j inst|fstate.fijo3~0_combout $end
$var wire 1 k inst|fstate.fijo3~q $end
$var wire 1 l inst|Z0~combout $end
$var wire 1 m inst|fstate.fijo2~0_combout $end
$var wire 1 n inst|fstate.fijo2~q $end
$var wire 1 o inst|Z1~combout $end
$var wire 1 p inst|fstate.fijo1~0_combout $end
$var wire 1 q inst|fstate.fijo1~q $end
$var wire 1 r inst|Z2~combout $end
$var wire 1 s inst|Selector1~0_combout $end
$var wire 1 t inst|Selector1~1_combout $end
$var wire 1 u inst|fstate.In0~q $end
$var wire 1 v inst|fstate.fijo0~0_combout $end
$var wire 1 w inst|fstate.fijo0~q $end
$var wire 1 x inst|Z3~combout $end
$var wire 1 y inst4|Mux3~2_combout $end
$var wire 1 z inst4|Mux3~1_combout $end
$var wire 1 { inst4|Mux3~0_combout $end
$var wire 1 | inst4|Mux3~3_combout $end
$var wire 1 } inst4|Mux3~4_combout $end
$var wire 1 ~ inst4|Mux2~2_combout $end
$var wire 1 !! inst4|Mux2~0_combout $end
$var wire 1 "! inst4|Mux2~1_combout $end
$var wire 1 #! inst4|Mux2~3_combout $end
$var wire 1 $! inst4|Mux1~1_combout $end
$var wire 1 %! inst4|Mux1~0_combout $end
$var wire 1 &! inst4|Mux1~2_combout $end
$var wire 1 '! inst4|Mux0~0_combout $end
$var wire 1 (! inst4|Mux0~1_combout $end
$var wire 1 )! inst7|altpll_component|auto_generated|wire_pll1_clk [4] $end
$var wire 1 *! inst7|altpll_component|auto_generated|wire_pll1_clk [3] $end
$var wire 1 +! inst7|altpll_component|auto_generated|wire_pll1_clk [2] $end
$var wire 1 ,! inst7|altpll_component|auto_generated|wire_pll1_clk [1] $end
$var wire 1 -! inst7|altpll_component|auto_generated|wire_pll1_clk [0] $end
$var wire 1 .! inst7|altpll_component|auto_generated|pll1_CLK_bus [4] $end
$var wire 1 /! inst7|altpll_component|auto_generated|pll1_CLK_bus [3] $end
$var wire 1 0! inst7|altpll_component|auto_generated|pll1_CLK_bus [2] $end
$var wire 1 1! inst7|altpll_component|auto_generated|pll1_CLK_bus [1] $end
$var wire 1 2! inst7|altpll_component|auto_generated|pll1_CLK_bus [0] $end
$upscope $end
$upscope $end
$enddefinitions $end
#0
$dumpvars
0!
0"
0#
0$
0%
0&
0'
0(
0)
1*
1+
1,
1-
z.
z/
z0
11
x2
03
14
x5
16
17
18
09
0:
0;
0<
1=
1>
0?
x@
0A
0B
xC
0D
0E
0F
0G
0H
0I
0J
0K
0L
0M
0N
1O
1P
0Q
0R
0S
0T
0U
0V
0W
1X
0Y
1Z
0[
0\
0]
0^
1_
0`
0a
0b
0c
0d
0e
0f
1g
0h
0i
0j
0k
0l
0m
0n
0o
0p
0q
0r
0s
1t
0u
0v
0w
1x
0y
0z
1{
1|
1}
0~
1!!
1"!
1#!
0$!
0%!
1&!
0'!
1(!
x-!
x,!
x+!
x*!
x)!
x2!
x1!
x0!
x/!
x.!
$end
#833
1C
#5000
1!
02
1B
#5833
0C
#10000
0!
12
0B
#10833
1C
#15000
1!
02
1B
#15833
0C
#20000
0!
12
0B
#20833
1C
#25000
1!
02
1B
#25833
0C
#30000
0!
12
0B
#30833
1C
#35000
1!
02
1B
#37916
0C
#40000
0!
12
0B
#45000
1!
02
1B
1C
1D
0.!
0/!
00!
01!
12!
0)!
0*!
0+!
0,!
1-!
1@
0g
1c
0_
0X
1R
0P
0O
1K
1E
0>
0t
0Z
1(
1&
1)
1'
#50000
0!
12
0B
0C
#55000
1!
02
1B
1C
#60000
0!
12
0B
0C
#65000
1!
02
1B
1C
#70000
0!
12
0B
0C
#75000
1!
02
1B
1C
#80000
0!
12
0B
0C
#85000
1!
02
1B
1C
#90000
0!
12
0B
0C
#95000
1!
02
1B
1C
#100000
0!
12
0B
0C
#105000
1!
02
1B
1C
#110000
0!
12
0B
0C
#115000
1!
02
1B
1C
#120000
0!
12
0B
0C
#125000
1!
02
1B
1C
#130000
0!
12
0B
0C
#135000
1!
02
1B
1C
#140000
0!
12
0B
0C
#145000
1!
02
1B
1C
#150000
0!
12
0B
0C
#155000
1!
02
1B
1C
#160000
1#
0!
1J
12
0B
0K
0C
#165000
1!
02
1B
1C
#170000
0!
12
0B
0C
#175000
1!
02
1B
1C
#180000
0!
12
0B
0C
#185000
1!
02
1B
1C
#190000
0!
12
0B
0C
#195000
1!
02
1B
1C
#200000
0!
12
0B
0C
#205000
1!
02
1B
1C
#210000
0!
12
0B
0C
#215000
1!
02
1B
1C
#220000
0!
12
0B
0C
#225000
1!
02
1B
1C
#230000
0!
12
0B
0C
#235000
1!
02
1B
1C
#240000
0!
12
0B
0C
#245000
1!
02
1B
1C
#250000
0!
12
0B
0C
#255000
1!
02
1B
1C
#260000
0!
12
0B
0C
#265000
1!
02
1B
1C
#270000
0!
12
0B
0C
#275000
1!
02
1B
1C
#280000
0!
12
0B
0C
#285000
1!
02
1B
1C
#290000
0!
12
0B
0C
#295000
1!
02
1B
1C
#300000
0!
12
0B
0C
#305000
1!
02
1B
1C
#310000
0!
12
0B
0C
#315000
1!
02
1B
1C
#320000
0!
12
0B
0C
#325000
1!
02
1B
1C
#330000
0!
12
0B
0C
#335000
1!
02
1B
1C
#340000
0!
12
0B
0C
#345000
1!
02
1B
1C
#350000
0!
12
0B
0C
#355000
1!
02
1B
1C
#360000
0!
12
0B
0C
#365000
1!
02
1B
1C
#370000
0!
12
0B
0C
#375000
1!
02
1B
1C
#380000
0!
12
0B
0C
#385000
1!
02
1B
1C
#390000
0!
12
0B
0C
#395000
1!
02
1B
1C
#400000
0!
12
0B
0C
#405000
1!
02
1B
1C
#410000
0!
12
0B
0C
#415000
1!
02
1B
1C
#420000
0!
12
0B
0C
#425000
1!
02
1B
1C
#430000
0!
12
0B
0C
#435000
1!
02
1B
1C
#440000
0!
12
0B
0C
#445000
1!
02
1B
1C
#450000
0!
12
0B
0C
#455000
1!
02
1B
1C
#460000
0!
12
0B
0C
#465000
1!
02
1B
1C
#470000
0!
12
0B
0C
#475000
1!
02
1B
1C
#480000
0!
12
0B
0C
#485000
1!
02
1B
1C
#490000
0!
12
0B
0C
#495000
1!
02
1B
1C
#500000
0!
12
0B
0C
#505000
1!
02
1B
1C
#510000
0!
12
0B
0C
#515000
1!
02
1B
1C
#520000
0!
12
0B
0C
#525000
1!
02
1B
1C
#530000
0!
12
0B
0C
#535000
1!
02
1B
1C
#540000
0!
12
0B
0C
#545000
1!
02
1B
1C
#550000
0!
12
0B
0C
#555000
1!
02
1B
1C
#560000
0!
12
0B
0C
#565000
1!
02
1B
1C
#570000
0!
12
0B
0C
#575000
1!
02
1B
1C
#580000
0!
12
0B
0C
#585000
1!
02
1B
1C
#590000
0!
12
0B
0C
#595000
1!
02
1B
1C
#600000
0!
12
0B
0C
#605000
1!
02
1B
1C
#610000
0!
12
0B
0C
#615000
1!
02
1B
1C
#620000
0!
12
0B
0C
#625000
1!
02
1B
1C
#630000
0!
12
0B
0C
#635000
1!
02
1B
1C
#640000
0!
12
0B
0C
#645000
1!
02
1B
1C
#650000
0!
12
0B
0C
#655000
1!
02
1B
1C
#660000
0!
12
0B
0C
#665000
1!
02
1B
1C
#670000
0!
12
0B
0C
#675000
1!
02
1B
1C
#680000
0!
12
0B
0C
#685000
1!
02
1B
1C
#690000
0!
12
0B
0C
#695000
1!
02
1B
1C
#700000
0!
12
0B
0C
#705000
1!
02
1B
1C
#710000
0!
12
0B
0C
#715000
1!
02
1B
1C
#720000
0!
12
0B
0C
#725000
1!
02
1B
1C
#730000
0!
12
0B
0C
#735000
1!
02
1B
1C
#740000
0!
12
0B
0C
#745000
1!
02
1B
1C
#750000
0!
12
0B
0C
#755000
1!
02
1B
1C
#760000
0!
12
0B
0C
#765000
1!
02
1B
1C
#770000
0!
12
0B
0C
#775000
1!
02
1B
1C
#780000
0!
12
0B
0C
#785000
1!
02
1B
1C
#790000
0!
12
0B
0C
#795000
1!
02
1B
1C
#800000
0!
12
0B
0C
#805000
1!
02
1B
1C
#810000
0!
12
0B
0C
#815000
1!
02
1B
1C
#820000
0!
12
0B
0C
#825000
1!
02
1B
1C
#830000
0!
12
0B
0C
#835000
1!
02
1B
1C
#840000
0!
12
0B
0C
#845000
1!
02
1B
1C
#850000
0!
12
0B
0C
#855000
1!
02
1B
1C
#860000
0!
12
0B
0C
#865000
1!
02
1B
1C
#870000
0!
12
0B
0C
#875000
1!
02
1B
1C
#880000
0!
12
0B
0C
#885000
1!
02
1B
1C
#890000
0!
12
0B
0C
#895000
1!
02
1B
1C
#900000
0!
12
0B
0C
#905000
1!
02
1B
1C
#910000
0!
12
0B
0C
#915000
1!
02
1B
1C
#920000
0!
12
0B
0C
#925000
1!
02
1B
1C
#930000
0!
12
0B
0C
#935000
1!
02
1B
1C
#940000
0!
12
0B
0C
#945000
1!
02
1B
1C
#950000
0!
12
0B
0C
#955000
1!
02
1B
1C
#960000
0!
12
0B
0C
#965000
1!
02
1B
1C
#970000
0!
12
0B
0C
#975000
1!
02
1B
1C
#980000
0!
12
0B
0C
#985000
1!
02
1B
1C
#990000
0!
12
0B
0C
#995000
1!
02
1B
1C
#1000000
0!
12
0B
0C
#1005000
1!
02
1B
1C
#1010000
0!
12
0B
0C
#1015000
1!
02
1B
1C
#1020000
0!
12
0B
0C
#1025000
1!
02
1B
1C
#1030000
0!
12
0B
0C
#1035000
1!
02
1B
1C
#1040000
0!
12
0B
0C
#1045000
1!
02
1B
1C
#1050000
0!
12
0B
0C
#1055000
1!
02
1B
1C
#1060000
0!
12
0B
0C
#1065000
1!
02
1B
1C
#1070000
0!
12
0B
0C
#1075000
1!
02
1B
1C
#1080000
0!
12
0B
0C
#1085000
1!
02
1B
1C
#1090000
0!
12
0B
0C
#1095000
1!
02
1B
1C
#1100000
0!
12
0B
0C
#1105000
1!
02
1B
1C
#1110000
0!
12
0B
0C
#1115000
1!
02
1B
1C
#1120000
0!
12
0B
0C
#1125000
1!
02
1B
1C
#1130000
0!
12
0B
0C
#1135000
1!
02
1B
1C
#1140000
0!
12
0B
0C
#1145000
1!
02
1B
1C
#1150000
0!
12
0B
0C
#1155000
1!
02
1B
1C
#1160000
0!
12
0B
0C
#1165000
1!
02
1B
1C
#1170000
0!
12
0B
0C
#1175000
1!
02
1B
1C
#1180000
0!
12
0B
0C
#1185000
1!
02
1B
1C
#1190000
0!
12
0B
0C
#1195000
1!
02
1B
1C
#1200000
0!
12
0B
0C
#1205000
1!
02
1B
1C
#1210000
0!
12
0B
0C
#1215000
1!
02
1B
1C
#1220000
0!
12
0B
0C
#1225000
1!
02
1B
1C
#1230000
0!
12
0B
0C
#1235000
1!
02
1B
1C
#1240000
0!
12
0B
0C
#1245000
1!
02
1B
1C
#1250000
0!
12
0B
0C
#1255000
1!
02
1B
1C
#1260000
0!
12
0B
0C
#1265000
1!
02
1B
1C
#1270000
0!
12
0B
0C
#1275000
1!
02
1B
1C
#1280000
0!
12
0B
0C
#1285000
1!
02
1B
1C
#1290000
0!
12
0B
0C
#1295000
1!
02
1B
1C
#1300000
0!
12
0B
0C
#1305000
1!
02
1B
1C
#1310000
0!
12
0B
0C
#1315000
1!
02
1B
1C
#1320000
0!
12
0B
0C
#1325000
1!
02
1B
1C
#1330000
0!
12
0B
0C
#1335000
1!
02
1B
1C
#1340000
0!
12
0B
0C
#1345000
1!
02
1B
1C
#1350000
0!
12
0B
0C
#1355000
1!
02
1B
1C
#1360000
0!
12
0B
0C
#1365000
1!
02
1B
1C
#1370000
0!
12
0B
0C
#1375000
1!
02
1B
1C
#1380000
0!
12
0B
0C
#1385000
1!
02
1B
1C
#1390000
0!
12
0B
0C
#1395000
1!
02
1B
1C
#1400000
0!
12
0B
0C
#1405000
1!
02
1B
1C
#1410000
0!
12
0B
0C
#1415000
1!
02
1B
1C
#1420000
0!
12
0B
0C
#1425000
1!
02
1B
1C
#1430000
0!
12
0B
0C
#1435000
1!
02
1B
1C
#1440000
0!
12
0B
0C
#1445000
1!
02
1B
1C
#1450000
0!
12
0B
0C
#1455000
1!
02
1B
1C
#1460000
0!
12
0B
0C
#1465000
1!
02
1B
1C
#1470000
0!
12
0B
0C
#1475000
1!
02
1B
1C
#1480000
0!
12
0B
0C
#1485000
1!
02
1B
1C
#1490000
0!
12
0B
0C
#1495000
1!
02
1B
1C
#1500000
0!
12
0B
0C
#1505000
1!
02
1B
1C
#1510000
0!
12
0B
0C
#1515000
1!
02
1B
1C
#1520000
0!
12
0B
0C
#1525000
1!
02
1B
1C
#1530000
0!
12
0B
0C
#1535000
1!
02
1B
1C
#1540000
0!
12
0B
0C
#1545000
1!
02
1B
1C
#1550000
0!
12
0B
0C
#1555000
1!
02
1B
1C
#1560000
0!
12
0B
0C
#1565000
1!
02
1B
1C
#1570000
0!
12
0B
0C
#1575000
1!
02
1B
1C
#1580000
0!
12
0B
0C
#1585000
1!
02
1B
1C
#1590000
0!
12
0B
0C
#1595000
1!
02
1B
1C
#1600000
0!
12
0B
0C
#1605000
1!
02
1B
1C
#1610000
0!
12
0B
0C
#1615000
1!
02
1B
1C
#1620000
0!
12
0B
0C
#1625000
1!
02
1B
1C
#1630000
0!
12
0B
0C
#1635000
1!
02
1B
1C
#1640000
0!
12
0B
0C
#1645000
1!
02
1B
1C
#1650000
0!
12
0B
0C
#1655000
1!
02
1B
1C
#1660000
0!
12
0B
0C
#1665000
1!
02
1B
1C
#1670000
0!
12
0B
0C
#1675000
1!
02
1B
1C
#1680000
0!
12
0B
0C
#1685000
1!
02
1B
1C
#1690000
0!
12
0B
0C
#1695000
1!
02
1B
1C
#1700000
0!
12
0B
0C
#1705000
1!
02
1B
1C
#1710000
0!
12
0B
0C
#1715000
1!
02
1B
1C
#1720000
0!
12
0B
0C
#1725000
1!
02
1B
1C
#1730000
0!
12
0B
0C
#1735000
1!
02
1B
1C
#1740000
0!
12
0B
0C
#1745000
1!
02
1B
1C
#1750000
0!
12
0B
0C
#1755000
1!
02
1B
1C
#1760000
0!
12
0B
0C
#1765000
1!
02
1B
1C
#1770000
0!
12
0B
0C
#1775000
1!
02
1B
1C
#1780000
0!
12
0B
0C
#1785000
1!
02
1B
1C
#1790000
0!
12
0B
0C
#1795000
1!
02
1B
1C
#1800000
0!
12
0B
0C
#1805000
1!
02
1B
1C
#1810000
0!
12
0B
0C
#1815000
1!
02
1B
1C
#1820000
0!
12
0B
0C
#1825000
1!
02
1B
1C
#1830000
0!
12
0B
0C
#1835000
1!
02
1B
1C
#1840000
0!
12
0B
0C
#1845000
1!
02
1B
1C
#1850000
0!
12
0B
0C
#1855000
1!
02
1B
1C
#1860000
0!
12
0B
0C
#1865000
1!
02
1B
1C
#1870000
0!
12
0B
0C
#1875000
1!
02
1B
1C
#1880000
0!
12
0B
0C
#1885000
1!
02
1B
1C
#1890000
0!
12
0B
0C
#1895000
1!
02
1B
1C
#1900000
0!
12
0B
0C
#1905000
1!
02
1B
1C
#1910000
0!
12
0B
0C
#1915000
1!
02
1B
1C
#1920000
0!
12
0B
0C
#1925000
1!
02
1B
1C
#1930000
0!
12
0B
0C
#1935000
1!
02
1B
1C
#1940000
0!
12
0B
0C
#1945000
1!
02
1B
1C
#1950000
0!
12
0B
0C
#1955000
1!
02
1B
1C
#1960000
0!
12
0B
0C
#1965000
1!
02
1B
1C
#1970000
0!
12
0B
0C
#1975000
1!
02
1B
1C
#1980000
0!
12
0B
0C
#1985000
1!
02
1B
1C
#1990000
0!
12
0B
0C
#1995000
1!
02
1B
1C
#2000000
0!
12
0B
0C
#2005000
1!
02
1B
1C
#2010000
0!
12
0B
0C
#2015000
1!
02
1B
1C
#2020000
0!
12
0B
0C
#2025000
1!
02
1B
1C
#2030000
0!
12
0B
0C
#2035000
1!
02
1B
1C
#2040000
0!
12
0B
0C
#2045000
1!
02
1B
1C
#2050000
0!
12
0B
0C
#2055000
1!
02
1B
1C
#2060000
0!
12
0B
0C
#2065000
1!
02
1B
1C
#2070000
0!
12
0B
0C
#2075000
1!
02
1B
1C
#2080000
0!
12
0B
0C
#2085000
1!
02
1B
1C
#2090000
0!
12
0B
0C
#2095000
1!
02
1B
1C
#2100000
0!
12
0B
0C
#2105000
1!
02
1B
1C
#2110000
0!
12
0B
0C
#2115000
1!
02
1B
1C
#2120000
0!
12
0B
0C
#2125000
1!
02
1B
1C
#2130000
0!
12
0B
0C
#2135000
1!
02
1B
1C
#2140000
0!
12
0B
0C
#2145000
1!
02
1B
1C
#2150000
0!
12
0B
0C
#2155000
1!
02
1B
1C
#2160000
0!
12
0B
0C
#2165000
1!
02
1B
1C
#2170000
0!
12
0B
0C
#2175000
1!
02
1B
1C
#2180000
0!
12
0B
0C
#2185000
1!
02
1B
1C
#2190000
0!
12
0B
0C
#2195000
1!
02
1B
1C
#2200000
0!
12
0B
0C
#2205000
1!
02
1B
1C
#2210000
0!
12
0B
0C
#2215000
1!
02
1B
1C
#2220000
0!
12
0B
0C
#2225000
1!
02
1B
1C
#2230000
0!
12
0B
0C
#2235000
1!
02
1B
1C
#2240000
0!
12
0B
0C
#2245000
1!
02
1B
1C
#2250000
0!
12
0B
0C
#2255000
1!
02
1B
1C
#2260000
0!
12
0B
0C
#2265000
1!
02
1B
1C
#2270000
0!
12
0B
0C
#2275000
1!
02
1B
1C
#2280000
0!
12
0B
0C
#2285000
1!
02
1B
1C
#2290000
0!
12
0B
0C
#2295000
1!
02
1B
1C
#2300000
0!
12
0B
0C
#2305000
1!
02
1B
1C
#2310000
0!
12
0B
0C
#2315000
1!
02
1B
1C
#2320000
0!
12
0B
0C
#2325000
1!
02
1B
1C
#2330000
0!
12
0B
0C
#2335000
1!
02
1B
1C
#2340000
0!
12
0B
0C
#2345000
1!
02
1B
1C
#2350000
0!
12
0B
0C
#2355000
1!
02
1B
1C
#2360000
0!
12
0B
0C
#2365000
1!
02
1B
1C
#2370000
0!
12
0B
0C
#2375000
1!
02
1B
1C
#2380000
0!
12
0B
0C
#2385000
1!
02
1B
1C
#2390000
0!
12
0B
0C
#2395000
1!
02
1B
1C
#2400000
0!
12
0B
0C
#2405000
1!
02
1B
1C
#2410000
0!
12
0B
0C
#2415000
1!
02
1B
1C
#2420000
0!
12
0B
0C
#2425000
1!
02
1B
1C
#2430000
0!
12
0B
0C
#2435000
1!
02
1B
1C
#2440000
0!
12
0B
0C
#2445000
1!
02
1B
1C
#2450000
0!
12
0B
0C
#2455000
1!
02
1B
1C
#2460000
0!
12
0B
0C
#2465000
1!
02
1B
1C
#2470000
0!
12
0B
0C
#2475000
1!
02
1B
1C
#2480000
0!
12
0B
0C
#2485000
1!
02
1B
1C
#2490000
0!
12
0B
0C
#2495000
1!
02
1B
1C
#2500000
0!
12
0B
0C
#2505000
1!
02
1B
1C
#2510000
0!
12
0B
0C
#2515000
1!
02
1B
1C
#2520000
0!
12
0B
0C
#2525000
1!
02
1B
1C
#2530000
0!
12
0B
0C
#2535000
1!
02
1B
1C
#2540000
0!
12
0B
0C
#2545000
1!
02
1B
1C
#2550000
0!
12
0B
0C
#2555000
1!
02
1B
1C
#2560000
0!
12
0B
0C
#2565000
1!
02
1B
1C
#2570000
0!
12
0B
0C
#2575000
1!
02
1B
1C
#2580000
0!
12
0B
0C
#2585000
1!
02
1B
1C
#2590000
0!
12
0B
0C
#2595000
1!
02
1B
1C
#2600000
0!
12
0B
0C
#2605000
1!
02
1B
1C
#2610000
0!
12
0B
0C
#2615000
1!
02
1B
1C
#2620000
0!
12
0B
0C
#2625000
1!
02
1B
1C
#2630000
0!
12
0B
0C
#2635000
1!
02
1B
1C
#2640000
0!
12
0B
0C
#2645000
1!
02
1B
1C
#2650000
0!
12
0B
0C
#2655000
1!
02
1B
1C
#2660000
0!
12
0B
0C
#2665000
1!
02
1B
1C
#2670000
0!
12
0B
0C
#2675000
1!
02
1B
1C
#2680000
0!
12
0B
0C
#2685000
1!
02
1B
1C
#2690000
0!
12
0B
0C
#2695000
1!
02
1B
1C
#2700000
0!
12
0B
0C
#2705000
1!
02
1B
1C
#2710000
0!
12
0B
0C
#2715000
1!
02
1B
1C
#2720000
0!
12
0B
0C
#2725000
1!
02
1B
1C
#2730000
0!
12
0B
0C
#2735000
1!
02
1B
1C
#2740000
0!
12
0B
0C
#2745000
1!
02
1B
1C
#2750000
0!
12
0B
0C
#2755000
1!
02
1B
1C
#2760000
0!
12
0B
0C
#2765000
1!
02
1B
1C
#2770000
0!
12
0B
0C
#2775000
1!
02
1B
1C
#2780000
0!
12
0B
0C
#2785000
1!
02
1B
1C
#2790000
0!
12
0B
0C
#2795000
1!
02
1B
1C
#2800000
0!
12
0B
0C
#2805000
1!
02
1B
1C
#2810000
0!
12
0B
0C
#2815000
1!
02
1B
1C
#2820000
0!
12
0B
0C
#2825000
1!
02
1B
1C
#2830000
0!
12
0B
0C
#2835000
1!
02
1B
1C
#2840000
0!
12
0B
0C
#2845000
1!
02
1B
1C
#2850000
0!
12
0B
0C
#2855000
1!
02
1B
1C
#2860000
0!
12
0B
0C
#2865000
1!
02
1B
1C
#2870000
0!
12
0B
0C
#2875000
1!
02
1B
1C
#2880000
0!
12
0B
0C
#2885000
1!
02
1B
1C
#2890000
0!
12
0B
0C
#2895000
1!
02
1B
1C
#2900000
0!
12
0B
0C
#2905000
1!
02
1B
1C
#2910000
0!
12
0B
0C
#2915000
1!
02
1B
1C
#2920000
0!
12
0B
0C
#2925000
1!
02
1B
1C
#2930000
0!
12
0B
0C
#2935000
1!
02
1B
1C
#2940000
0!
12
0B
0C
#2945000
1!
02
1B
1C
#2950000
0!
12
0B
0C
#2955000
1!
02
1B
1C
#2960000
0!
12
0B
0C
#2965000
1!
02
1B
1C
#2970000
0!
12
0B
0C
#2975000
1!
02
1B
1C
#2980000
0!
12
0B
0C
#2985000
1!
02
1B
1C
#2990000
0!
12
0B
0C
#2995000
1!
02
1B
1C
#3000000
0!
12
0B
0C
#3005000
1!
02
1B
1C
#3010000
0!
12
0B
0C
#3015000
1!
02
1B
1C
#3020000
0!
12
0B
0C
#3025000
1!
02
1B
1C
#3030000
0!
12
0B
0C
#3035000
1!
02
1B
1C
#3040000
0!
12
0B
0C
#3045000
1!
02
1B
1C
#3050000
0!
12
0B
0C
#3055000
1!
02
1B
1C
#3060000
0!
12
0B
0C
#3065000
1!
02
1B
1C
#3070000
0!
12
0B
0C
#3075000
1!
02
1B
1C
#3080000
0!
12
0B
0C
#3085000
1!
02
1B
1C
#3090000
0!
12
0B
0C
#3095000
1!
02
1B
1C
#3100000
0!
12
0B
0C
#3105000
1!
02
1B
1C
#3110000
0!
12
0B
0C
#3115000
1!
02
1B
1C
#3120000
0!
12
0B
0C
#3125000
1!
02
1B
1C
#3130000
0!
12
0B
0C
#3135000
1!
02
1B
1C
#3140000
0!
12
0B
0C
#3145000
1!
02
1B
1C
#3150000
0!
12
0B
0C
#3155000
1!
02
1B
1C
#3160000
0!
12
0B
0C
#3165000
1!
02
1B
1C
#3170000
0!
12
0B
0C
#3175000
1!
02
1B
1C
#3180000
0!
12
0B
0C
#3185000
1!
02
1B
1C
#3190000
0!
12
0B
0C
#3195000
1!
02
1B
1C
#3200000
0!
12
0B
0C
#3205000
1!
02
1B
1C
#3210000
0!
12
0B
0C
#3215000
1!
02
1B
1C
#3220000
0!
12
0B
0C
#3225000
1!
02
1B
1C
#3230000
0!
12
0B
0C
#3235000
1!
02
1B
1C
#3240000
0!
12
0B
0C
#3245000
1!
02
1B
1C
#3250000
0!
12
0B
0C
#3255000
1!
02
1B
1C
#3260000
0!
12
0B
0C
#3265000
1!
02
1B
1C
#3270000
0!
12
0B
0C
#3275000
1!
02
1B
1C
#3280000
0!
12
0B
0C
#3285000
1!
02
1B
1C
#3290000
0!
12
0B
0C
#3295000
1!
02
1B
1C
#3300000
0!
12
0B
0C
#3305000
1!
02
1B
1C
#3310000
0!
12
0B
0C
#3315000
1!
02
1B
1C
#3320000
0!
12
0B
0C
#3325000
1!
02
1B
1C
#3330000
0!
12
0B
0C
#3335000
1!
02
1B
1C
#3340000
0!
12
0B
0C
#3345000
1!
02
1B
1C
#3350000
0!
12
0B
0C
#3355000
1!
02
1B
1C
#3360000
0!
12
0B
0C
#3365000
1!
02
1B
1C
#3370000
0!
12
0B
0C
#3375000
1!
02
1B
1C
#3380000
0!
12
0B
0C
#3385000
1!
02
1B
1C
#3390000
0!
12
0B
0C
#3395000
1!
02
1B
1C
#3400000
0!
12
0B
0C
#3405000
1!
02
1B
1C
#3410000
0!
12
0B
0C
#3415000
1!
02
1B
1C
#3420000
0!
12
0B
0C
#3425000
1!
02
1B
1C
#3430000
0!
12
0B
0C
#3435000
1!
02
1B
1C
#3440000
0!
12
0B
0C
#3445000
1!
02
1B
1C
#3450000
0!
12
0B
0C
#3455000
1!
02
1B
1C
#3460000
0!
12
0B
0C
#3465000
1!
02
1B
1C
#3470000
0!
12
0B
0C
#3475000
1!
02
1B
1C
#3480000
0!
12
0B
0C
#3485000
1!
02
1B
1C
#3490000
0!
12
0B
0C
#3495000
1!
02
1B
1C
#3500000
0!
12
0B
0C
#3505000
1!
02
1B
1C
#3510000
0!
12
0B
0C
#3515000
1!
02
1B
1C
#3520000
0!
12
0B
0C
#3525000
1!
02
1B
1C
#3530000
0!
12
0B
0C
#3535000
1!
02
1B
1C
#3540000
0!
12
0B
0C
#3545000
1!
02
1B
1C
#3550000
0!
12
0B
0C
#3555000
1!
02
1B
1C
#3560000
0!
12
0B
0C
#3565000
1!
02
1B
1C
#3570000
0!
12
0B
0C
#3575000
1!
02
1B
1C
#3580000
0!
12
0B
0C
#3585000
1!
02
1B
1C
#3590000
0!
12
0B
0C
#3595000
1!
02
1B
1C
#3600000
0!
12
0B
0C
#3605000
1!
02
1B
1C
#3610000
0!
12
0B
0C
#3615000
1!
02
1B
1C
#3620000
0!
12
0B
0C
#3625000
1!
02
1B
1C
#3630000
0!
12
0B
0C
#3635000
1!
02
1B
1C
#3640000
0!
12
0B
0C
#3645000
1!
02
1B
1C
#3650000
0!
12
0B
0C
#3655000
1!
02
1B
1C
#3660000
0!
12
0B
0C
#3665000
1!
02
1B
1C
#3670000
0!
12
0B
0C
#3675000
1!
02
1B
1C
#3680000
0!
12
0B
0C
