matrizbotones/simulation/qsim/matrizbotones.msim.vcd
$comment
	File created using the following command:
		vcd file matrizbotones.msim.vcd -direction
$end
$date
	Thu Nov 27 14:55:02 2025
$end
$version
	ModelSim Version 10.1d
$end
$timescale
	1ps
$end
$scope module Block1_vlg_vec_tst $end
$var reg 1 ! clk $end
$var reg 1 " x0 $end
$var reg 1 # x1 $end
$var reg 1 $ x2 $end
$var reg 1 % x3 $end
$var wire 1 & c0 $end
$var wire 1 ' c1 $end
$var wire 1 ( c2 $end
$var wire 1 ) c3 $end
$var wire 1 * c4 $end
$var wire 1 + cont $end
$var wire 1 , locked $end
$var wire 1 - p0 $end
$var wire 1 . p1 $end
$var wire 1 / p2 $end
$var wire 1 0 p3 $end
$var wire 1 1 T $end
$var wire 1 2 z0 $end
$var wire 1 3 z1 $end
$var wire 1 4 z2 $end
$var wire 1 5 z3 $end
$var wire 1 6 sampler $end
$scope module i1 $end
$var wire 1 7 gnd $end
$var wire 1 8 vcc $end
$var wire 1 9 unknown $end
$var tri1 1 : devclrn $end
$var tri1 1 ; devpor $end
$var tri1 1 < devoe $end
$var wire 1 = inst|fstate.fijo2~0_combout $end
$var wire 1 > x1~input_o $end
$var wire 1 ? x3~input_o $end
$var wire 1 @ inst7|altpll_component|auto_generated|wire_pll1_clk[1]~clkctrl_outclk $end
$var wire 1 A clk~input_o $end
$var wire 1 B inst7|altpll_component|auto_generated|wire_pll1_fbout $end
$var wire 1 C inst7|altpll_component|auto_generated|wire_pll1_locked $end
$var wire 1 D inst10|reg_fstate.unoestable~0_combout $end
$var wire 1 E inst10|fstate.unoestable~q $end
$var wire 1 F inst10|reg_fstate.ceroestable~0_combout $end
$var wire 1 G inst10|fstate.ceroestable~q $end
$var wire 1 H inst10|reg_fstate.preguntacero~0_combout $end
$var wire 1 I inst10|fstate.preguntacero~q $end
$var wire 1 J inst10|z~0_combout $end
$var wire 1 K tat|reg_fstate.unoestable~0_combout $end
$var wire 1 L tat|fstate.unoestable~q $end
$var wire 1 M tat|reg_fstate.ceroestable~0_combout $end
$var wire 1 N tat|fstate.ceroestable~q $end
$var wire 1 O tat|reg_fstate.preguntacero~0_combout $end
$var wire 1 P tat|fstate.preguntacero~q $end
$var wire 1 Q tat|z~0_combout $end
$var wire 1 R x0~input_o $end
$var wire 1 S inst11|reg_fstate.unoestable~0_combout $end
$var wire 1 T inst11|fstate.unoestable~q $end
$var wire 1 U inst11|reg_fstate.ceroestable~0_combout $end
$var wire 1 V inst11|fstate.ceroestable~q $end
$var wire 1 W inst11|reg_fstate.preguntacero~0_combout $end
$var wire 1 X inst11|fstate.preguntacero~q $end
$var wire 1 Y inst11|z~0_combout $end
$var wire 1 Z inst|process_1~0_combout $end
$var wire 1 [ inst|fstate.fijo3~0_combout $end
$var wire 1 \ inst|fstate.fijo3~q $end
$var wire 1 ] inst|Selector1~0_combout $end
$var wire 1 ^ inst|fstate.In0~q $end
$var wire 1 _ inst|Selector3~0_combout $end
$var wire 1 ` inst|fstate.In1~q $end
$var wire 1 a inst|Selector0~0_combout $end
$var wire 1 b inst|fstate.In2~q $end
$var wire 1 c inst|Selector2~0_combout $end
$var wire 1 d inst|fstate.In3~q $end
$var wire 1 e inst|fstate.fijo2~1_combout $end
$var wire 1 f inst|fstate.fijo2~q $end
$var wire 1 g x2~input_o $end
$var wire 1 h inst9|reg_fstate.unoestable~0_combout $end
$var wire 1 i inst9|fstate.unoestable~q $end
$var wire 1 j inst9|reg_fstate.ceroestable~0_combout $end
$var wire 1 k inst9|fstate.ceroestable~q $end
$var wire 1 l inst9|reg_fstate.preguntacero~0_combout $end
$var wire 1 m inst9|fstate.preguntacero~q $end
$var wire 1 n inst9|z~0_combout $end
$var wire 1 o inst|fstate.fijo1~0_combout $end
$var wire 1 p inst|fstate.fijo1~1_combout $end
$var wire 1 q inst|fstate.fijo1~q $end
$var wire 1 r inst|fstate.fijo0~0_combout $end
$var wire 1 s inst|fstate.fijo0~q $end
$var wire 1 t inst4|Mux3~1_combout $end
$var wire 1 u inst4|Mux3~0_combout $end
$var wire 1 v inst4|Mux3~2_combout $end
$var wire 1 w inst4|Mux2~0_combout $end
$var wire 1 x inst4|Mux2~1_combout $end
$var wire 1 y inst4|Mux1~5_combout $end
$var wire 1 z inst4|Mux1~6_combout $end
$var wire 1 { inst4|Mux1~4_combout $end
$var wire 1 | inst4|Mux0~0_combout $end
$var wire 1 } inst7|altpll_component|auto_generated|wire_pll1_clk[0]~clkctrl_outclk $end
$var wire 1 ~ inst2~0_combout $end
$var wire 1 !! inst2~1_combout $end
$var wire 1 "! inst2~2_combout $end
$var wire 1 #! inst|Z [0] $end
$var wire 1 $! inst|Z [1] $end
$var wire 1 %! inst|Z [2] $end
$var wire 1 &! inst|Z [3] $end
$var wire 1 '! inst7|altpll_component|auto_generated|wire_pll1_clk [4] $end
$var wire 1 (! inst7|altpll_component|auto_generated|wire_pll1_clk [3] $end
$var wire 1 )! inst7|altpll_component|auto_generated|wire_pll1_clk [2] $end
$var wire 1 *! inst7|altpll_component|auto_generated|wire_pll1_clk [1] $end
$var wire 1 +! inst7|altpll_component|auto_generated|wire_pll1_clk [0] $end
$var wire 1 ,! inst7|altpll_component|auto_generated|pll1_CLK_bus [4] $end
$var wire 1 -! inst7|altpll_component|auto_generated|pll1_CLK_bus [3] $end
$var wire 1 .! inst7|altpll_component|auto_generated|pll1_CLK_bus [2] $end
$var wire 1 /! inst7|altpll_component|auto_generated|pll1_CLK_bus [1] $end
$var wire 1 0! inst7|altpll_component|auto_generated|pll1_CLK_bus [0] $end
$upscope $end
$upscope $end
$enddefinitions $end
#0
$dumpvars
0!
0"
0#
0$
0%
0&
0'
0(
0)
x*
0+
0,
0-
0.
0/
00
11
z2
z3
z4
15
x6
07
18
x9
1:
1;
1<
0=
0>
0?
x@
0A
xB
0C
0D
0E
0F
0G
0H
0I
1J
0K
0L
0M
0N
0O
0P
1Q
0R
0S
0T
0U
0V
0W
0X
1Y
0Z
0[
0\
1]
0^
1_
0`
0a
0b
0c
0d
0e
0f
0g
0h
0i
0j
0k
0l
0m
1n
0o
0p
0q
0r
0s
1t
0u
0v
0w
0x
0y
0z
0{
0|
x}
0~
0!!
0"!
1&!
0%!
0$!
0#!
x+!
x*!
x)!
x(!
x'!
x0!
x/!
x.!
x-!
x,!
$end
#833
1B
#10000
1!
06
1A
#10833
0B
#20000
0!
16
0A
#20833
1B
#30000
1!
06
1A
#30833
0B
#40000
0!
16
0A
#40833
1B
#50000
1!
06
1A
#50833
0B
#60000
0!
16
0A
#60833
1B
#70000
1!
06
1A
#75416
0B
#80000
0!
16
0A
#90000
1!
06
1A
1B
1C
0,!
0-!
0.!
1/!
10!
0'!
0(!
0)!
1*!
1+!
1@
1}
1,
1*
#100000
0!
16
0A
0B
#110000
1!
06
1A
1B
#120000
0!
16
0A
0B
#130000
1!
06
1A
1B
#140000
0!
16
0A
0B
#150000
1!
06
1A
1B
#160000
0!
16
0A
0B
#170000
1!
06
1A
1B
#180000
0!
16
0A
0B
#190000
1!
06
1A
1B
#200000
0!
16
0A
0B
#210000
1!
06
1A
1B
#220000
0!
16
0A
0B
#230000
1!
06
1A
1B
#240000
0!
16
0A
0B
#250000
1!
06
1A
1B
#260000
0!
16
0A
0B
#270000
1!
06
1A
1B
#280000
0!
16
0A
0B
#290000
1!
06
1A
1B
#300000
0!
16
0A
0B
#310000
1!
06
1A
1B
#320000
0!
16
0A
0B
#330000
1!
06
1A
1B
#340000
0!
16
0A
0B
#350000
1!
06
1A
1B
#360000
0!
16
0A
0B
#370000
1!
06
1A
1B
#380000
0!
16
0A
0B
#390000
1!
06
1A
1B
#400000
0!
16
0A
0B
#410000
1!
06
1A
1B
#420000
0!
16
0A
0B
#430000
1!
06
1A
1B
#440000
0!
16
0A
0B
#450000
1!
06
1A
1B
#460000
0!
16
0A
0B
#470000
1!
06
1A
1B
#480000
0!
16
0A
0B
#490000
1!
06
1A
1B
#500000
0!
16
0A
0B
#510000
1!
06
1A
1B
#520000
0!
16
0A
0B
#530000
1!
06
1A
1B
#540000
0!
16
0A
0B
#550000
1!
06
1A
1B
#560000
0!
16
0A
0B
#570000
1!
06
1A
1B
#580000
0!
16
0A
0B
#590000
1!
06
1A
1B
#600000
0!
16
0A
0B
#610000
1!
06
1A
1B
#620000
0!
16
0A
0B
#630000
1!
06
1A
1B
#640000
0!
16
0A
0B
#650000
1!
06
1A
1B
#660000
0!
16
0A
0B
#670000
1!
06
1A
1B
#680000
0!
16
0A
0B
#690000
1!
06
1A
1B
#700000
0!
16
0A
0B
#710000
1!
06
1A
1B
#720000
0!
16
0A
0B
#730000
1!
06
1A
1B
#740000
0!
16
0A
0B
#750000
1!
06
1A
1B
#760000
0!
16
0A
0B
#770000
1!
06
1A
1B
#780000
0!
16
0A
0B
#790000
1!
06
1A
1B
#800000
0!
16
0A
0B
#810000
1!
06
1A
1B
#820000
0!
16
0A
0B
#830000
1!
06
1A
1B
#840000
0!
16
0A
0B
#850000
1!
06
1A
1B
#860000
0!
16
0A
0B
#870000
1!
06
1A
1B
#880000
0!
16
0A
0B
#890000
1!
06
1A
1B
#900000
0!
16
0A
0B
#910000
1!
06
1A
1B
#920000
0!
16
0A
0B
#930000
1!
06
1A
1B
#940000
0!
16
0A
0B
#950000
1!
06
1A
1B
#960000
0!
16
0A
0B
#970000
1!
06
1A
1B
#980000
0!
16
0A
0B
#990000
1!
06
1A
1B
#1000000
0!
16
0A
0B
#1010000
1!
06
1A
1B
#1020000
0!
16
0A
0B
#1030000
1!
06
1A
1B
#1040000
0!
16
0A
0B
#1050000
1!
06
1A
1B
#1060000
0!
16
0A
0B
#1070000
1!
06
1A
1B
#1080000
0!
16
0A
0B
#1090000
1!
06
1A
1B
#1100000
0!
16
0A
0B
#1110000
1!
06
1A
1B
#1120000
0!
16
0A
0B
#1130000
1!
06
1A
1B
#1140000
0!
16
0A
0B
#1150000
1!
06
1A
1B
#1160000
0!
16
0A
0B
#1170000
1!
06
1A
1B
#1180000
0!
16
0A
0B
#1190000
1!
06
1A
1B
#1200000
0!
16
0A
0B
#1210000
1!
06
1A
1B
#1220000
0!
16
0A
0B
#1230000
1!
06
1A
1B
#1240000
0!
16
0A
0B
#1250000
1!
06
1A
1B
#1260000
0!
16
0A
0B
#1270000
1!
06
1A
1B
#1280000
0!
16
0A
0B
#1290000
1!
06
1A
1B
#1300000
0!
16
0A
0B
#1310000
1!
06
1A
1B
#1320000
0!
16
0A
0B
#1330000
1!
06
1A
1B
#1340000
0!
16
0A
0B
#1350000
1!
06
1A
1B
#1360000
0!
16
0A
0B
#1370000
1!
06
1A
1B
#1380000
0!
16
0A
0B
#1390000
1!
06
1A
1B
#1400000
0!
16
0A
0B
#1410000
1!
06
1A
1B
#1420000
0!
16
0A
0B
#1430000
1!
06
1A
1B
#1440000
0!
16
0A
0B
#1450000
1!
06
1A
1B
#1460000
0!
16
0A
0B
#1470000
1!
06
1A
1B
#1480000
0!
16
0A
0B
#1490000
1!
06
1A
1B
#1500000
0!
16
0A
0B
#1510000
1!
06
1A
1B
#1520000
0!
16
0A
0B
#1530000
1!
06
1A
1B
#1540000
0!
16
0A
0B
#1550000
1!
06
1A
1B
#1560000
0!
16
0A
0B
#1570000
1!
06
1A
1B
#1580000
0!
16
0A
0B
#1590000
1!
06
1A
1B
#1600000
0!
16
0A
0B
#1610000
1!
06
1A
1B
#1620000
0!
16
0A
0B
#1630000
1!
06
1A
1B
#1640000
0!
16
0A
0B
#1650000
1!
06
1A
1B
#1660000
0!
16
0A
0B
#1670000
1!
06
1A
1B
#1680000
0!
16
0A
0B
#1690000
1!
06
1A
1B
#1700000
0!
16
0A
0B
#1710000
1!
06
1A
1B
#1720000
0!
16
0A
0B
#1730000
1!
06
1A
1B
#1740000
0!
16
0A
0B
#1750000
1!
06
1A
1B
#1760000
0!
16
0A
0B
#1770000
1!
06
1A
1B
#1780000
0!
16
0A
0B
#1790000
1!
06
1A
1B
#1800000
0!
16
0A
0B
#1810000
1!
06
1A
1B
#1820000
0!
16
0A
0B
#1830000
1!
06
1A
1B
#1840000
0!
16
0A
0B
#1850000
1!
06
1A
1B
#1860000
0!
16
0A
0B
#1870000
1!
06
1A
1B
#1880000
0!
16
0A
0B
#1890000
1!
06
1A
1B
#1900000
0!
16
0A
0B
#1910000
1!
06
1A
1B
#1920000
0!
16
0A
0B
#1930000
1!
06
1A
1B
#1940000
0!
16
0A
0B
#1950000
1!
06
1A
1B
#1960000
0!
16
0A
0B
#1970000
1!
06
1A
1B
#1980000
0!
16
0A
0B
#1990000
1!
06
1A
1B
#2000000
0!
16
0A
0B
#2010000
1!
06
1A
1B
#2020000
0!
16
0A
0B
#2030000
1!
06
1A
1B
#2040000
0!
16
0A
0B
#2050000
1!
06
1A
1B
#2060000
0!
16
0A
0B
#2070000
1!
06
1A
1B
#2080000
0!
16
0A
0B
#2090000
1!
06
1A
1B
#2100000
0!
16
0A
0B
#2110000
1!
06
1A
1B
#2120000
0!
16
0A
0B
#2130000
1!
06
1A
1B
#2140000
0!
16
0A
0B
#2150000
1!
06
1A
1B
#2160000
0!
16
0A
0B
#2170000
1!
06
1A
1B
#2180000
0!
16
0A
0B
#2190000
1!
06
1A
1B
#2200000
0!
16
0A
0B
#2210000
1!
06
1A
1B
#2220000
0!
16
0A
0B
#2230000
1!
06
1A
1B
#2240000
0!
16
0A
0B
#2250000
1!
06
1A
1B
#2260000
0!
16
0A
0B
#2270000
1!
06
1A
1B
#2280000
0!
16
0A
0B
#2290000
1!
06
1A
1B
#2300000
0!
16
0A
0B
#2310000
1!
06
1A
1B
#2320000
0!
16
0A
0B
#2330000
1!
06
1A
1B
#2340000
0!
16
0A
0B
#2350000
1!
06
1A
1B
#2360000
0!
16
0A
0B
#2370000
1!
06
1A
1B
#2380000
0!
16
0A
0B
#2390000
1!
06
1A
1B
#2400000
0!
16
0A
0B
#2410000
1!
06
1A
1B
#2420000
0!
16
0A
0B
#2430000
1!
06
1A
1B
#2440000
0!
16
0A
0B
#2450000
1!
06
1A
1B
#2460000
0!
16
0A
0B
#2470000
1!
06
1A
1B
#2480000
0!
16
0A
0B
#2490000
1!
06
1A
1B
#2500000
0!
16
0A
0B
#2510000
1!
06
1A
1B
#2520000
0!
16
0A
0B
#2530000
1!
06
1A
1B
#2540000
0!
16
0A
0B
#2550000
1!
06
1A
1B
#2560000
0!
16
0A
0B
#2570000
1!
06
1A
1B
#2580000
0!
16
0A
0B
#2590000
1!
06
1A
1B
#2600000
0!
16
0A
0B
#2610000
1!
06
1A
1B
#2620000
0!
16
0A
0B
#2630000
1!
06
1A
1B
#2640000
0!
16
0A
0B
#2650000
1!
06
1A
1B
#2660000
0!
16
0A
0B
#2670000
1!
06
1A
1B
#2680000
0!
16
0A
0B
#2690000
1!
06
1A
1B
#2700000
0!
16
0A
0B
#2710000
1!
06
1A
1B
#2720000
0!
16
0A
0B
#2730000
1!
06
1A
1B
#2740000
0!
16
0A
0B
#2750000
1!
06
1A
1B
#2760000
0!
16
0A
0B
#2770000
1!
06
1A
1B
#2780000
0!
16
0A
0B
#2790000
1!
06
1A
1B
#2800000
0!
16
0A
0B
#2810000
1!
06
1A
1B
#2820000
0!
16
0A
0B
#2830000
1!
06
1A
1B
#2840000
0!
16
0A
0B
#2850000
1!
06
1A
1B
#2860000
0!
16
0A
0B
#2870000
1!
06
1A
1B
#2880000
0!
16
0A
0B
#2890000
1!
06
1A
1B
#2900000
0!
16
0A
0B
#2910000
1!
06
1A
1B
#2920000
0!
16
0A
0B
#2930000
1!
06
1A
1B
#2940000
0!
16
0A
0B
#2950000
1!
06
1A
1B
#2960000
0!
16
0A
0B
#2970000
1!
06
1A
1B
#2980000
0!
16
0A
0B
#2990000
1!
06
1A
1B
#3000000
0!
16
0A
0B
#3010000
1!
06
1A
1B
#3020000
0!
16
0A
0B
#3030000
1!
06
1A
1B
#3040000
0!
16
0A
0B
#3050000
1!
06
1A
1B
#3060000
0!
16
0A
0B
#3070000
1!
06
1A
1B
#3080000
0!
16
0A
0B
#3090000
1!
06
1A
1B
#3100000
0!
16
0A
0B
#3110000
1!
06
1A
1B
#3120000
0!
16
0A
0B
#3130000
1!
06
1A
1B
#3140000
0!
16
0A
0B
#3150000
1!
06
1A
1B
#3160000
0!
16
0A
0B
#3170000
1!
06
1A
1B
#3180000
0!
16
0A
0B
#3190000
1!
06
1A
1B
#3200000
0!
16
0A
0B
#3210000
1!
06
1A
1B
#3220000
0!
16
0A
0B
#3230000
1!
06
1A
1B
#3240000
0!
16
0A
0B
#3250000
1!
06
1A
1B
#3260000
0!
16
0A
0B
#3270000
1!
06
1A
1B
#3280000
0!
16
0A
0B
#3290000
1!
06
1A
1B
#3300000
0!
16
0A
0B
#3310000
1!
06
1A
1B
#3320000
0!
16
0A
0B
#3330000
1!
06
1A
1B
#3340000
0!
16
0A
0B
#3350000
1!
06
1A
1B
#3360000
0!
16
0A
0B
#3370000
1!
06
1A
1B
#3380000
0!
16
0A
0B
#3390000
1!
06
1A
1B
#3400000
0!
16
0A
0B
#3410000
1!
06
1A
1B
#3420000
0!
16
0A
0B
#3430000
1!
06
1A
1B
#3440000
0!
16
0A
0B
#3450000
1!
06
1A
1B
#3460000
0!
16
0A
0B
#3470000
1!
06
1A
1B
#3480000
0!
16
0A
0B
#3490000
1!
06
1A
1B
#3500000
0!
16
0A
0B
#3510000
1!
06
1A
1B
#3520000
0!
16
0A
0B
#3530000
1!
06
1A
1B
#3540000
0!
16
0A
0B
#3550000
1!
06
1A
1B
#3560000
0!
16
0A
0B
#3570000
1!
06
1A
1B
#3580000
0!
16
0A
0B
#3590000
1!
06
1A
1B
#3600000
0!
16
0A
0B
#3610000
1!
06
1A
1B
#3620000
0!
16
0A
0B
#3630000
1!
06
1A
1B
#3640000
0!
16
0A
0B
#3650000
1!
06
1A
1B
#3660000
0!
16
0A
0B
#3670000
1!
06
1A
1B
#3680000
0!
16
0A
0B
#3690000
1!
06
1A
1B
#3700000
0!
16
0A
0B
#3710000
1!
06
1A
1B
#3720000
0!
16
0A
0B
#3730000
1!
06
1A
1B
#3740000
0!
16
0A
0B
#3750000
1!
06
1A
1B
#3760000
0!
16
0A
0B
#3770000
1!
06
1A
1B
#3780000
0!
16
0A
0B
#3790000
1!
06
1A
1B
#3800000
0!
16
0A
0B
#3810000
1!
06
1A
1B
#3820000
0!
16
0A
0B
#3830000
1!
06
1A
1B
#3840000
0!
16
0A
0B
#3850000
1!
06
1A
1B
#3860000
0!
16
0A
0B
#3870000
1!
06
1A
1B
#3880000
0!
16
0A
0B
#3890000
1!
06
1A
1B
#3900000
0!
16
0A
0B
#3910000
1!
06
1A
1B
#3920000
0!
16
0A
0B
#3930000
1!
06
1A
1B
#3940000
0!
16
0A
0B
#3950000
1!
06
1A
1B
#3960000
0!
16
0A
0B
#3970000
1!
06
1A
1B
#3980000
0!
16
0A
0B
#3990000
1!
06
1A
1B
#4000000
0!
16
0A
0B
#4010000
1!
06
1A
1B
#4020000
0!
16
0A
0B
#4030000
1!
06
1A
1B
#4040000
0!
16
0A
0B
#4050000
1!
06
1A
1B
#4060000
0!
16
0A
0B
#4070000
1!
06
1A
1B
#4080000
0!
16
0A
0B
#4090000
1!
06
1A
1B
#4100000
0!
16
0A
0B
#4110000
1!
06
1A
1B
#4120000
0!
16
0A
0B
#4130000
1!
06
1A
1B
#4140000
0!
16
0A
0B
#4150000
1!
06
1A
1B
#4160000
0!
16
0A
0B
#4170000
1!
06
1A
1B
#4180000
0!
16
0A
0B
#4190000
1!
06
1A
1B
#4200000
0!
16
0A
0B
#4210000
1!
06
1A
1B
#4220000
0!
16
0A
0B
#4230000
1!
06
1A
1B
#4240000
0!
16
0A
0B
#4250000
1!
06
1A
1B
#4260000
0!
16
0A
0B
#4270000
1!
06
1A
1B
#4280000
0!
16
0A
0B
#4290000
1!
06
1A
1B
#4300000
0!
16
0A
0B
#4310000
1!
06
1A
1B
#4320000
0!
16
0A
0B
#4330000
1!
06
1A
1B
#4340000
0!
16
0A
0B
#4350000
1!
06
1A
1B
#4360000
0!
16
0A
0B
#4370000
1!
06
1A
1B
#4380000
0!
16
0A
0B
#4390000
1!
06
1A
1B
#4400000
0!
16
0A
0B
#4410000
1!
06
1A
1B
#4420000
0!
16
0A
0B
#4430000
1!
06
1A
1B
#4440000
0!
16
0A
0B
#4450000
1!
06
1A
1B
#4460000
0!
16
0A
0B
#4470000
1!
06
1A
1B
#4480000
0!
16
0A
0B
#4490000
1!
06
1A
1B
#4500000
0!
16
0A
0B
#4510000
1!
06
1A
1B
#4520000
0!
16
0A
0B
#4530000
1!
06
1A
1B
#4540000
0!
16
0A
0B
#4550000
1!
06
1A
1B
#4560000
0!
16
0A
0B
#4570000
1!
06
1A
1B
#4580000
0!
16
0A
0B
#4590000
1!
06
1A
1B
#4600000
0!
16
0A
0B
#4610000
1!
06
1A
1B
#4620000
0!
16
0A
0B
#4630000
1!
06
1A
1B
#4640000
0!
16
0A
0B
#4650000
1!
06
1A
1B
#4660000
0!
16
0A
0B
#4670000
1!
06
1A
1B
#4680000
0!
16
0A
0B
#4690000
1!
06
1A
1B
#4700000
0!
16
0A
0B
#4710000
1!
06
1A
1B
#4720000
0!
16
0A
0B
#4730000
1!
06
1A
1B
#4740000
0!
16
0A
0B
#4750000
1!
06
1A
1B
#4760000
0!
16
0A
0B
#4770000
1!
06
1A
1B
#4780000
0!
16
0A
0B
#4790000
1!
06
1A
1B
#4800000
0!
16
0A
0B
#4810000
1!
06
1A
1B
#4820000
0!
16
0A
0B
#4830000
1!
06
1A
1B
#4840000
0!
16
0A
0B
#4850000
1!
06
1A
1B
#4860000
0!
16
0A
0B
#4870000
1!
06
1A
1B
#4880000
0!
16
0A
0B
#4890000
1!
06
1A
1B
#4900000
0!
16
0A
0B
#4910000
1!
06
1A
1B
#4920000
0!
16
0A
0B
#4930000
1!
06
1A
1B
#4940000
0!
16
0A
0B
#4950000
1!
06
1A
1B
#4960000
0!
16
0A
0B
#4970000
1!
06
1A
1B
#4980000
0!
16
0A
0B
#4990000
1!
06
1A
1B
#5000000
0!
16
0A
0B
#5010000
1!
06
1A
1B
#5020000
0!
16
0A
0B
#5030000
1!
06
1A
1B
#5040000
0!
16
0A
0B
#5050000
1!
06
1A
1B
#5060000
0!
16
0A
0B
#5070000
1!
06
1A
1B
#5080000
0!
16
0A
0B
#5090000
1!
06
1A
1B
#5100000
0!
16
0A
0B
#5110000
1!
06
1A
1B
#5120000
0!
16
0A
0B
#5130000
1!
06
1A
1B
#5140000
0!
16
0A
0B
#5150000
1!
06
1A
1B
#5160000
0!
16
0A
0B
#5170000
1!
06
1A
1B
#5180000
0!
16
0A
0B
#5190000
1!
06
1A
1B
#5200000
0!
16
0A
0B
#5210000
1!
06
1A
1B
#5220000
0!
16
0A
0B
#5230000
1!
06
1A
1B
#5240000
0!
16
0A
0B
#5250000
1!
06
1A
1B
#5260000
0!
16
0A
0B
#5270000
1!
06
1A
1B
#5280000
0!
16
0A
0B
#5290000
1!
06
1A
1B
#5300000
0!
16
0A
0B
#5310000
1!
06
1A
1B
#5320000
0!
16
0A
0B
#5330000
1!
06
1A
1B
#5340000
0!
16
0A
0B
#5350000
1!
06
1A
1B
#5360000
0!
16
0A
0B
#5370000
1!
06
1A
1B
#5380000
0!
16
0A
0B
#5390000
1!
06
1A
1B
#5400000
0!
16
0A
0B
#5410000
1!
06
1A
1B
#5420000
0!
16
0A
0B
#5430000
1!
06
1A
1B
#5440000
0!
16
0A
0B
#5450000
1!
06
1A
1B
#5460000
0!
16
0A
0B
#5470000
1!
06
1A
1B
#5480000
0!
16
0A
0B
#5490000
1!
06
1A
1B
#5500000
0!
16
0A
0B
#5510000
1!
06
1A
1B
#5520000
0!
16
0A
0B
#5530000
1!
06
1A
1B
#5540000
0!
16
0A
0B
#5550000
1!
06
1A
1B
#5560000
0!
16
0A
0B
#5570000
1!
06
1A
1B
#5580000
0!
16
0A
0B
#5590000
1!
06
1A
1B
#5600000
0!
16
0A
0B
#5610000
1!
06
1A
1B
#5620000
0!
16
0A
0B
#5630000
1!
06
1A
1B
#5640000
0!
16
0A
0B
#5650000
1!
06
1A
1B
#5660000
0!
16
0A
0B
#5670000
1!
06
1A
1B
#5680000
0!
16
0A
0B
#5690000
1!
06
1A
1B
#5700000
0!
16
0A
0B
#5710000
1!
06
1A
1B
#5720000
0!
16
0A
0B
#5730000
1!
06
1A
1B
#5740000
0!
16
0A
0B
#5750000
1!
06
1A
1B
#5760000
0!
16
0A
0B
#5770000
1!
06
1A
1B
#5780000
0!
16
0A
0B
#5790000
1!
06
1A
1B
#5800000
0!
16
0A
0B
#5810000
1!
06
1A
1B
#5820000
0!
16
0A
0B
#5830000
1!
06
1A
1B
#5840000
0!
16
0A
0B
#5850000
1!
06
1A
1B
#5860000
0!
16
0A
0B
#5870000
1!
06
1A
1B
#5880000
0!
16
0A
0B
#5890000
1!
06
1A
1B
#5900000
0!
16
0A
0B
#5910000
1!
06
1A
1B
#5920000
0!
16
0A
0B
#5930000
1!
06
1A
1B
#5940000
0!
16
0A
0B
#5950000
1!
06
1A
1B
#5960000
0!
16
0A
0B
#5970000
1!
06
1A
1B
#5980000
0!
16
0A
0B
#5990000
1!
06
1A
1B
#6000000
0!
16
0A
0B
#6010000
1!
06
1A
1B
#6020000
0!
16
0A
0B
#6030000
1!
06
1A
1B
#6040000
0!
16
0A
0B
#6050000
1!
06
1A
1B
#6060000
0!
16
0A
0B
#6070000
1!
06
1A
1B
#6080000
0!
16
0A
0B
#6090000
1!
06
1A
1B
#6100000
0!
16
0A
0B
#6110000
1!
06
1A
1B
#6120000
0!
16
0A
0B
#6130000
1!
06
1A
1B
#6140000
0!
16
0A
0B
#6150000
1!
06
1A
1B
#6160000
0!
16
0A
0B
#6170000
1!
06
1A
1B
#6180000
0!
16
0A
0B
#6190000
1!
06
1A
1B
#6200000
0!
16
0A
0B
#6210000
1!
06
1A
1B
#6220000
0!
16
0A
0B
#6230000
1!
06
1A
1B
#6240000
0!
16
0A
0B
#6250000
1!
06
1A
1B
#6260000
0!
16
0A
0B
#6270000
1!
06
1A
1B
#6280000
0!
16
0A
0B
#6290000
1!
06
1A
1B
#6300000
0!
16
0A
0B
#6310000
1!
06
1A
1B
#6320000
0!
16
0A
0B
#6330000
1!
06
1A
1B
#6340000
0!
16
0A
0B
#6350000
1!
06
1A
1B
#6360000
0!
16
0A
0B
#6370000
1!
06
1A
1B
#6380000
0!
16
0A
0B
#6390000
1!
06
1A
1B
#6400000
0!
16
0A
0B
#6410000
1!
06
1A
1B
#6420000
0!
16
0A
0B
#6430000
1!
06
1A
1B
#6440000
0!
16
0A
0B
#6450000
1!
06
1A
1B
#6460000
0!
16
0A
0B
#6470000
1!
06
1A
1B
#6480000
0!
16
0A
0B
#6490000
1!
06
1A
1B
#6500000
0!
16
0A
0B
#6510000
1!
06
1A
1B
#6520000
0!
16
0A
0B
#6530000
1!
06
1A
1B
#6540000
0!
16
0A
0B
#6550000
1!
06
1A
1B
#6560000
0!
16
0A
0B
#6570000
1!
06
1A
1B
#6580000
0!
16
0A
0B
#6590000
1!
06
1A
1B
#6600000
0!
16
0A
0B
#6610000
1!
06
1A
1B
#6620000
0!
16
0A
0B
#6630000
1!
06
1A
1B
#6640000
0!
16
0A
0B
#6650000
1!
06
1A
1B
#6660000
0!
16
0A
0B
#6670000
1!
06
1A
1B
#6680000
0!
16
0A
0B
#6690000
1!
06
1A
1B
#6700000
0!
16
0A
0B
#6710000
1!
06
1A
1B
#6720000
0!
16
0A
0B
#6730000
1!
06
1A
1B
#6740000
0!
16
0A
0B
#6750000
1!
06
1A
1B
#6760000
0!
16
0A
0B
#6770000
1!
06
1A
1B
#6780000
0!
16
0A
0B
#6790000
1!
06
1A
1B
#6800000
0!
16
0A
0B
#6810000
1!
06
1A
1B
#6820000
0!
16
0A
0B
#6830000
1!
06
1A
1B
#6840000
0!
16
0A
0B
#6850000
1!
06
1A
1B
#6860000
0!
16
0A
0B
#6870000
1!
06
1A
1B
#6880000
0!
16
0A
0B
#6890000
1!
06
1A
1B
#6900000
0!
16
0A
0B
#6910000
1!
06
1A
1B
#6920000
0!
16
0A
0B
#6930000
1!
06
1A
1B
#6940000
0!
16
0A
0B
#6950000
1!
06
1A
1B
#6960000
0!
16
0A
0B
#6970000
1!
06
1A
1B
#6980000
0!
16
0A
0B
#6990000
1!
06
1A
1B
#7000000
0!
16
0A
0B
#7010000
1!
06
1A
1B
#7020000
0!
16
0A
0B
#7030000
1!
06
1A
1B
#7040000
0!
16
0A
0B
#7050000
1!
06
1A
1B
#7060000
0!
16
0A
0B
#7070000
1!
06
1A
1B
#7080000
0!
16
0A
0B
#7090000
1!
06
1A
1B
#7100000
0!
16
0A
0B
#7110000
1!
06
1A
1B
#7120000
0!
16
0A
0B
#7130000
1!
06
1A
1B
#7140000
0!
16
0A
0B
#7150000
1!
06
1A
1B
#7160000
0!
16
0A
0B
#7170000
1!
06
1A
1B
#7180000
0!
16
0A
0B
#7190000
1!
06
1A
1B
#7200000
0!
16
0A
0B
#7210000
1!
06
1A
1B
#7220000
0!
16
0A
0B
#7230000
1!
06
1A
1B
#7240000
0!
16
0A
0B
#7250000
1!
06
1A
1B
#7260000
0!
16
0A
0B
#7270000
1!
06
1A
1B
#7280000
0!
16
0A
0B
#7290000
1!
06
1A
1B
#7300000
0!
16
0A
0B
#7310000
1!
06
1A
1B
#7320000
0!
16
0A
0B
#7330000
1!
06
1A
1B
#7340000
0!
16
0A
0B
#7350000
1!
06
1A
1B
#7360000
0!
16
0A
0B
#7370000
1!
06
1A
1B
#7380000
0!
16
0A
0B
