matrizbotones/simulation/qsim/matrizbotones.msim.vcd
$comment
	File created using the following command:
		vcd file matrizbotones.msim.vcd -direction
$end
$date
	Thu Nov 27 13:08:55 2025
$end
$version
	ModelSim Version 10.1d
$end
$timescale
	1ps
$end
$scope module Block1_vlg_vec_tst $end
$var reg 1 ! clk $end
$var reg 1 " pin_name1 $end
$var reg 1 # x0 $end
$var reg 1 $ x1 $end
$var reg 1 % x2 $end
$var reg 1 & x3 $end
$var wire 1 ' c0 $end
$var wire 1 ( c1 $end
$var wire 1 ) c2 $end
$var wire 1 * c3 $end
$var wire 1 + c4 $end
$var wire 1 , cont $end
$var wire 1 - locked $end
$var wire 1 . p0 $end
$var wire 1 / p1 $end
$var wire 1 0 p2 $end
$var wire 1 1 p3 $end
$var wire 1 2 T $end
$var wire 1 3 z0 $end
$var wire 1 4 z1 $end
$var wire 1 5 z2 $end
$var wire 1 6 z3 $end
$var wire 1 7 sampler $end
$scope module i1 $end
$var wire 1 8 gnd $end
$var wire 1 9 vcc $end
$var wire 1 : unknown $end
$var tri1 1 ; devclrn $end
$var tri1 1 < devpor $end
$var tri1 1 = devoe $end
$var wire 1 > tat|fstate.ceroestable~q $end
$var wire 1 ? inst4|Mux2~1_combout $end
$var wire 1 @ tat|fstate.unoestable~q $end
$var wire 1 A tat|reg_fstate.ceroestable~0_combout $end
$var wire 1 B tat|reg_fstate.unoestable~0_combout $end
$var wire 1 C inst7|altpll_component|auto_generated|wire_pll1_clk[0]~clkctrl_outclk $end
$var wire 1 D x3~input_o $end
$var wire 1 E inst7|altpll_component|auto_generated|pll_lock_sync~feeder_combout $end
$var wire 1 F pin_name1~input_o $end
$var wire 1 G pin_name1~inputclkctrl_outclk $end
$var wire 1 H inst7|altpll_component|auto_generated|pll_lock_sync~q $end
$var wire 1 I clk~input_o $end
$var wire 1 J inst7|altpll_component|auto_generated|wire_pll1_fbout $end
$var wire 1 K inst7|altpll_component|auto_generated|wire_pll1_locked $end
$var wire 1 L tat|reg_fstate.preguntacero~0_combout $end
$var wire 1 M tat|fstate.preguntacero~q $end
$var wire 1 N tat|z~0_combout $end
$var wire 1 O x2~input_o $end
$var wire 1 P inst9|reg_fstate.unoestable~0_combout $end
$var wire 1 Q inst9|fstate.unoestable~q $end
$var wire 1 R inst9|reg_fstate.ceroestable~0_combout $end
$var wire 1 S inst9|fstate.ceroestable~q $end
$var wire 1 T inst9|reg_fstate.preguntacero~0_combout $end
$var wire 1 U inst9|fstate.preguntacero~q $end
$var wire 1 V inst9|z~0_combout $end
$var wire 1 W x0~input_o $end
$var wire 1 X inst11|reg_fstate.unoestable~0_combout $end
$var wire 1 Y inst11|fstate.unoestable~q $end
$var wire 1 Z inst11|reg_fstate.ceroestable~0_combout $end
$var wire 1 [ inst11|fstate.ceroestable~q $end
$var wire 1 \ inst11|reg_fstate.preguntacero~0_combout $end
$var wire 1 ] inst11|fstate.preguntacero~q $end
$var wire 1 ^ inst11|z~0_combout $end
$var wire 1 _ inst|process_1~0_combout $end
$var wire 1 ` inst|Selector1~0_combout $end
$var wire 1 a inst7|altpll_component|auto_generated|locked~combout $end
$var wire 1 b inst7|altpll_component|auto_generated|locked~clkctrl_outclk $end
$var wire 1 c inst|fstate.In0~q $end
$var wire 1 d inst|Selector3~0_combout $end
$var wire 1 e inst|fstate.In1~q $end
$var wire 1 f inst|Selector0~0_combout $end
$var wire 1 g inst|fstate.In2~q $end
$var wire 1 h inst|Selector2~0_combout $end
$var wire 1 i inst|fstate.In3~q $end
$var wire 1 j inst|fstate.fijo3~0_combout $end
$var wire 1 k inst|fstate.fijo3~q $end
$var wire 1 l inst|fstate.fijo2~0_combout $end
$var wire 1 m inst|fstate.fijo2~q $end
$var wire 1 n inst|fstate.fijo1~0_combout $end
$var wire 1 o inst|fstate.fijo1~q $end
$var wire 1 p inst|fstate.fijo0~0_combout $end
$var wire 1 q inst|fstate.fijo0~q $end
$var wire 1 r x1~input_o $end
$var wire 1 s inst10|reg_fstate.unoestable~0_combout $end
$var wire 1 t inst10|fstate.unoestable~q $end
$var wire 1 u inst10|reg_fstate.ceroestable~0_combout $end
$var wire 1 v inst10|fstate.ceroestable~q $end
$var wire 1 w inst10|reg_fstate.preguntacero~0_combout $end
$var wire 1 x inst10|fstate.preguntacero~q $end
$var wire 1 y inst10|z~0_combout $end
$var wire 1 z inst4|Mux3~1_combout $end
$var wire 1 { inst4|Mux3~0_combout $end
$var wire 1 | inst4|Mux3~2_combout $end
$var wire 1 } inst4|Mux3~3_combout $end
$var wire 1 ~ inst4|Mux3~4_combout $end
$var wire 1 !! inst4|Mux2~0_combout $end
$var wire 1 "! inst4|Mux2~2_combout $end
$var wire 1 #! inst4|Mux2~3_combout $end
$var wire 1 $! inst4|Mux1~0_combout $end
$var wire 1 %! inst4|Mux1~1_combout $end
$var wire 1 &! inst4|Mux1~2_combout $end
$var wire 1 '! inst4|Mux0~0_combout $end
$var wire 1 (! inst4|Mux0~1_combout $end
$var wire 1 )! inst7|altpll_component|auto_generated|wire_pll1_clk[0]~clkctrl_e_c4_outclk $end
$var wire 1 *! inst2~0_combout $end
$var wire 1 +! inst2~1_combout $end
$var wire 1 ,! inst7|altpll_component|auto_generated|wire_pll1_clk [4] $end
$var wire 1 -! inst7|altpll_component|auto_generated|wire_pll1_clk [3] $end
$var wire 1 .! inst7|altpll_component|auto_generated|wire_pll1_clk [2] $end
$var wire 1 /! inst7|altpll_component|auto_generated|wire_pll1_clk [1] $end
$var wire 1 0! inst7|altpll_component|auto_generated|wire_pll1_clk [0] $end
$var wire 1 1! inst|Z [0] $end
$var wire 1 2! inst|Z [1] $end
$var wire 1 3! inst|Z [2] $end
$var wire 1 4! inst|Z [3] $end
$var wire 1 5! inst7|altpll_component|auto_generated|pll1_CLK_bus [4] $end
$var wire 1 6! inst7|altpll_component|auto_generated|pll1_CLK_bus [3] $end
$var wire 1 7! inst7|altpll_component|auto_generated|pll1_CLK_bus [2] $end
$var wire 1 8! inst7|altpll_component|auto_generated|pll1_CLK_bus [1] $end
$var wire 1 9! inst7|altpll_component|auto_generated|pll1_CLK_bus [0] $end
$upscope $end
$upscope $end
$enddefinitions $end
#0
$dumpvars
0!
0"
0#
0$
0%
0&
0'
0(
0)
0*
x+
0,
0-
1.
1/
10
11
12
z3
z4
z5
16
x7
08
19
x:
1;
1<
1=
0>
0?
0@
0A
0B
xC
0D
1E
0F
0G
0H
0I
xJ
0K
0L
0M
1N
0O
0P
0Q
0R
0S
0T
0U
1V
0W
0X
0Y
0Z
0[
0\
0]
1^
0_
1`
1a
1b
0c
1d
0e
0f
0g
0h
0i
0j
0k
0l
0m
0n
0o
0p
0q
0r
0s
0t
0u
0v
0w
0x
1y
0z
1{
1|
0}
1~
1!!
1"!
1#!
0$!
0%!
1&!
0'!
1(!
x)!
0*!
0+!
x0!
x/!
x.!
x-!
x,!
14!
03!
02!
01!
x9!
x8!
x7!
x6!
x5!
$end
#833
1J
#10000
1!
07
1I
#10833
0J
#20000
0!
17
0I
#20833
1J
#30000
1!
07
1I
#30833
0J
#40000
0!
17
0I
#40833
1J
#50000
1!
07
1I
#50833
0J
#60000
0!
17
0I
#60833
1J
#70000
1!
07
1I
#75416
0J
#80000
0!
17
0I
#90000
1!
07
1I
1J
1K
05!
06!
07!
08!
09!
0,!
0-!
0.!
0/!
00!
0C
0)!
0+
1H
0a
0b
1-
#100000
0!
17
0I
0J
#110000
1!
07
1I
19!
10!
1C
1)!
1J
1+
1e
1c
1$!
1f
0d
13!
04!
15
z6
#120000
0!
17
0I
0J
#130000
1!
07
1I
1J
#140000
0!
17
0I
0J
#150000
1!
07
1I
1J
#160000
0!
17
0I
09!
00!
0C
0)!
0J
0+
#170000
1!
07
1I
1J
#180000
0!
17
0I
0J
#190000
1!
07
1I
1J
#200000
0!
17
0I
0J
#210000
1!
07
1I
19!
10!
1C
1)!
1J
1+
1g
0e
1'!
1z
1h
0$!
0f
12!
03!
0|
0!!
0{
14
z5
#220000
0!
17
0I
0J
#230000
1!
07
1I
1J
#240000
0!
17
0I
0J
#250000
1!
07
1I
1J
#260000
0!
17
0I
09!
00!
0C
0)!
0J
0+
#270000
1!
07
1I
1J
#280000
0!
17
0I
0J
#290000
1!
07
1I
1J
#300000
0!
17
0I
0J
#310000
1!
07
1I
19!
10!
1C
1)!
1J
1+
1i
0g
1$!
0`
0h
11!
02!
13
z4
#320000
0!
17
0I
0J
#330000
1!
07
1I
1J
#340000
0!
17
0I
0J
#350000
1!
07
1I
1J
#360000
0!
17
0I
09!
00!
0C
0)!
0J
0+
#370000
1!
07
1I
1J
#380000
0!
17
0I
0J
#390000
1!
07
1I
1J
#400000
0!
17
0I
0J
#410000
1!
07
1I
19!
10!
1C
1)!
1J
1+
0i
0c
0'!
0$!
0z
1`
1d
01!
14!
0"!
1!!
1{
z3
16
0~
1"!
1|
0.
0#!
0/
1#!
1~
1/
1.
#420000
0!
17
0I
0J
#430000
1!
07
1I
1J
#440000
0!
17
0I
0J
#450000
1!
07
1I
1J
#460000
0!
17
0I
09!
00!
0C
0)!
0J
0+
#470000
1!
07
1I
1J
#480000
0!
17
0I
0J
#490000
1!
07
1I
1J
#500000
0!
17
0I
0J
#510000
1!
07
1I
19!
10!
1C
1)!
1J
1+
1e
1c
1$!
1f
0d
13!
04!
15
z6
#520000
0!
17
0I
0J
#530000
1!
07
1I
1J
#540000
0!
17
0I
0J
#550000
1!
07
1I
1J
#560000
0!
17
0I
09!
00!
0C
0)!
0J
0+
#570000
1!
07
1I
1J
#580000
0!
17
0I
0J
#590000
1!
07
1I
1J
#600000
0!
17
0I
0J
#610000
1!
07
1I
19!
10!
1C
1)!
1J
1+
1g
0e
1'!
1z
1h
0$!
0f
12!
03!
0|
0!!
0{
14
z5
#620000
0!
17
0I
0J
#630000
1!
07
1I
1J
#640000
0!
17
0I
0J
#650000
1!
07
1I
1J
#660000
0!
17
0I
09!
00!
0C
0)!
0J
0+
#670000
1!
07
1I
1J
#680000
0!
17
0I
0J
#690000
1!
07
1I
1J
#700000
0!
17
0I
0J
#710000
1!
07
1I
19!
10!
1C
1)!
1J
1+
1i
0g
1$!
0`
0h
11!
02!
13
z4
#720000
0!
17
0I
0J
#730000
1!
07
1I
1J
#740000
0!
17
0I
0J
#750000
1!
07
1I
1J
#760000
0!
17
0I
09!
00!
0C
0)!
0J
0+
#770000
1!
07
1I
1J
#780000
0!
17
0I
0J
#790000
1!
07
1I
1J
#800000
0!
17
0I
0J
#810000
1!
07
1I
19!
10!
1C
1)!
1J
1+
0i
0c
0'!
0$!
0z
1`
1d
01!
14!
0"!
1!!
1{
z3
16
0~
1"!
1|
0.
0#!
0/
1#!
1~
1/
1.
#820000
0!
17
0I
0J
#830000
1!
07
1I
1J
#840000
0!
17
0I
0J
#850000
1!
07
1I
1J
#860000
0!
17
0I
09!
00!
0C
0)!
0J
0+
#870000
1!
07
1I
1J
#880000
0!
17
0I
0J
#890000
1!
07
1I
1J
#900000
0!
17
0I
0J
#910000
1!
07
1I
19!
10!
1C
1)!
1J
1+
1e
1c
1$!
1f
0d
13!
04!
15
z6
#920000
0!
17
0I
0J
#930000
1!
07
1I
1J
#940000
0!
17
0I
0J
#950000
1!
07
1I
1J
#960000
0!
17
0I
09!
00!
0C
0)!
0J
0+
#970000
1!
07
1I
1J
#980000
0!
17
0I
0J
#990000
1!
07
1I
1J
#1000000
0!
17
0I
0J
#1010000
1!
07
1I
19!
10!
1C
1)!
1J
1+
1g
0e
1'!
1z
1h
0$!
0f
12!
03!
0|
0!!
0{
14
z5
#1020000
0!
17
0I
0J
#1030000
1!
07
1I
1J
#1040000
0!
17
0I
0J
#1050000
1!
07
1I
1J
#1060000
0!
17
0I
09!
00!
0C
0)!
0J
0+
#1070000
1!
07
1I
1J
#1080000
0!
17
0I
0J
#1090000
1!
07
1I
1J
#1100000
0!
17
0I
0J
#1110000
1!
07
1I
19!
10!
1C
1)!
1J
1+
1i
0g
1$!
0`
0h
11!
02!
13
z4
#1120000
0!
17
0I
0J
#1130000
1!
07
1I
1J
#1140000
0!
17
0I
0J
#1150000
1!
07
1I
1J
#1160000
0!
17
0I
09!
00!
0C
0)!
0J
0+
#1170000
1!
07
1I
1J
#1180000
0!
17
0I
0J
#1190000
1!
07
1I
1J
#1200000
0!
17
0I
0J
#1210000
1!
07
1I
19!
10!
1C
1)!
1J
1+
0i
0c
0'!
0$!
0z
1`
1d
01!
14!
0"!
1!!
1{
z3
16
0~
1"!
1|
0.
0#!
0/
1#!
1~
1/
1.
#1220000
0!
17
0I
0J
#1230000
1!
07
1I
1J
#1240000
0!
17
0I
0J
#1250000
1!
07
1I
1J
#1260000
0!
17
0I
09!
00!
0C
0)!
0J
0+
#1270000
1!
07
1I
1J
#1280000
0!
17
0I
0J
#1290000
1!
07
1I
1J
#1300000
0!
17
0I
0J
#1310000
1!
07
1I
19!
10!
1C
1)!
1J
1+
1e
1c
1$!
1f
0d
13!
04!
15
z6
#1320000
0!
17
0I
0J
#1330000
1!
07
1I
1J
#1340000
0!
17
0I
0J
#1350000
1!
07
1I
1J
#1360000
0!
17
0I
09!
00!
0C
0)!
0J
0+
#1370000
1!
07
1I
1J
#1380000
0!
17
0I
0J
#1390000
1!
07
1I
1J
#1400000
0!
17
0I
0J
#1410000
1!
07
1I
19!
10!
1C
1)!
1J
1+
1g
0e
1'!
1z
1h
0$!
0f
12!
03!
0|
0!!
0{
14
z5
#1420000
0!
17
0I
0J
#1430000
1!
07
1I
1J
#1440000
0!
17
0I
0J
#1450000
1!
07
1I
1J
#1460000
0!
17
0I
09!
00!
0C
0)!
0J
0+
#1470000
1!
07
1I
1J
#1480000
0!
17
0I
0J
#1490000
1!
07
1I
1J
#1500000
0!
17
0I
0J
#1510000
1!
07
1I
19!
10!
1C
1)!
1J
1+
1i
0g
1$!
0`
0h
11!
02!
13
z4
#1520000
0!
17
0I
0J
#1530000
1!
07
1I
1J
#1540000
0!
17
0I
0J
#1550000
1!
07
1I
1J
#1560000
0!
17
0I
09!
00!
0C
0)!
0J
0+
#1570000
1!
07
1I
1J
#1580000
0!
17
0I
0J
#1590000
1!
07
1I
1J
#1600000
0!
17
0I
0J
#1610000
1!
07
1I
19!
10!
1C
1)!
1J
1+
0i
0c
0'!
0$!
0z
1`
1d
01!
14!
0"!
1!!
1{
z3
16
0~
1"!
1|
0.
0#!
0/
1#!
1~
1/
1.
#1620000
0!
17
0I
0J
#1630000
1!
07
1I
1J
#1640000
0!
17
0I
0J
#1650000
1!
07
1I
1J
#1660000
0!
17
0I
09!
00!
0C
0)!
0J
0+
#1670000
1!
07
1I
1J
#1680000
0!
17
0I
0J
#1690000
1!
07
1I
1J
#1700000
0!
17
0I
0J
#1710000
1!
07
1I
19!
10!
1C
1)!
1J
1+
1e
1c
1$!
1f
0d
13!
04!
15
z6
#1720000
0!
17
0I
0J
#1730000
1!
07
1I
1J
#1740000
0!
17
0I
0J
#1750000
1!
07
1I
1J
#1760000
0!
17
0I
09!
00!
0C
0)!
0J
0+
#1770000
1!
07
1I
1J
#1780000
0!
17
0I
0J
#1790000
1!
07
1I
1J
#1800000
0!
17
0I
0J
#1810000
1!
07
1I
19!
10!
1C
1)!
1J
1+
1g
0e
1'!
1z
1h
0$!
0f
12!
03!
0|
0!!
0{
14
z5
#1820000
0!
17
0I
0J
#1830000
1!
07
1I
1J
#1840000
0!
17
0I
0J
#1850000
1!
07
1I
1J
#1860000
0!
17
0I
09!
00!
0C
0)!
0J
0+
#1870000
1!
07
1I
1J
#1880000
0!
17
0I
0J
#1890000
1!
07
1I
1J
#1900000
0!
17
0I
0J
#1910000
1!
07
1I
19!
10!
1C
1)!
1J
1+
1i
0g
1$!
0`
0h
11!
02!
13
z4
#1920000
0!
17
0I
0J
#1930000
1!
07
1I
1J
#1940000
0!
17
0I
0J
#1950000
1!
07
1I
1J
#1960000
0!
17
0I
09!
00!
0C
0)!
0J
0+
#1970000
1!
07
1I
1J
#1980000
0!
17
0I
0J
#1990000
1!
07
1I
1J
#2000000
0!
17
0I
0J
#2010000
1!
07
1I
19!
10!
1C
1)!
1J
1+
0i
0c
0'!
0$!
0z
1`
1d
01!
14!
0"!
1!!
1{
z3
16
0~
1"!
1|
0.
0#!
0/
1#!
1~
1/
1.
#2020000
0!
17
0I
0J
#2030000
1!
07
1I
1J
#2040000
0!
17
0I
0J
#2050000
1!
07
1I
1J
#2060000
0!
17
0I
09!
00!
0C
0)!
0J
0+
#2070000
1!
07
1I
1J
#2080000
0!
17
0I
0J
#2090000
1!
07
1I
1J
#2100000
0!
17
0I
0J
#2110000
1!
07
1I
19!
10!
1C
1)!
1J
1+
1e
1c
1$!
1f
0d
13!
04!
15
z6
#2120000
0!
17
0I
0J
#2130000
1!
07
1I
1J
#2140000
0!
17
0I
0J
#2150000
1!
07
1I
1J
#2160000
0!
17
0I
09!
00!
0C
0)!
0J
0+
#2170000
1!
07
1I
1J
#2180000
0!
17
0I
0J
#2190000
1!
07
1I
1J
#2200000
0!
17
0I
0J
#2210000
1!
07
1I
19!
10!
1C
1)!
1J
1+
1g
0e
1'!
1z
1h
0$!
0f
12!
03!
0|
0!!
0{
14
z5
#2220000
0!
17
0I
0J
#2230000
1!
07
1I
1J
#2240000
0!
17
0I
0J
#2250000
1!
07
1I
1J
#2260000
0!
17
0I
09!
00!
0C
0)!
0J
0+
#2270000
1!
07
1I
1J
#2280000
0!
17
0I
0J
#2290000
1!
07
1I
1J
#2300000
0!
17
0I
0J
#2310000
1!
07
1I
19!
10!
1C
1)!
1J
1+
1i
0g
1$!
0`
0h
11!
02!
13
z4
#2320000
0!
17
0I
0J
#2330000
1!
07
1I
1J
#2340000
0!
17
0I
0J
#2350000
1!
07
1I
1J
#2360000
0!
17
0I
09!
00!
0C
0)!
0J
0+
#2370000
1!
07
1I
1J
#2380000
0!
17
0I
0J
#2390000
1!
07
1I
1J
#2400000
0!
17
0I
0J
#2410000
1!
07
1I
19!
10!
1C
1)!
1J
1+
0i
0c
0'!
0$!
0z
1`
1d
01!
14!
0"!
1!!
1{
z3
16
0~
1"!
1|
0.
0#!
0/
1#!
1~
1/
1.
#2420000
0!
17
0I
0J
#2430000
1!
07
1I
1J
#2440000
0!
17
0I
0J
#2450000
1!
07
1I
1J
#2460000
0!
17
0I
09!
00!
0C
0)!
0J
0+
#2470000
1!
07
1I
1J
#2480000
0!
17
0I
0J
#2490000
1!
07
1I
1J
#2500000
0!
17
0I
0J
#2510000
1!
07
1I
19!
10!
1C
1)!
1J
1+
1e
1c
1$!
1f
0d
13!
04!
15
z6
#2520000
0!
17
0I
0J
#2530000
1!
07
1I
1J
#2540000
0!
17
0I
0J
#2550000
1!
07
1I
1J
#2560000
0!
17
0I
09!
00!
0C
0)!
0J
0+
#2570000
1!
07
1I
1J
#2580000
0!
17
0I
0J
#2590000
1!
07
1I
1J
#2600000
0!
17
0I
0J
#2610000
1!
07
1I
19!
10!
1C
1)!
1J
1+
1g
0e
1'!
1z
1h
0$!
0f
12!
03!
0|
0!!
0{
14
z5
#2620000
0!
17
0I
0J
#2630000
1!
07
1I
1J
#2640000
0!
17
0I
0J
#2650000
1!
07
1I
1J
#2660000
0!
17
0I
09!
00!
0C
0)!
0J
0+
#2670000
1!
07
1I
1J
#2680000
0!
17
0I
0J
#2690000
1!
07
1I
1J
#2700000
0!
17
0I
0J
#2710000
1!
07
1I
19!
10!
1C
1)!
1J
1+
1i
0g
1$!
0`
0h
11!
02!
13
z4
#2720000
0!
17
0I
0J
#2730000
1!
07
1I
1J
#2740000
0!
17
0I
0J
#2750000
1!
07
1I
1J
#2760000
0!
17
0I
09!
00!
0C
0)!
0J
0+
#2770000
1!
07
1I
1J
#2780000
0!
17
0I
0J
#2790000
1!
07
1I
1J
#2800000
0!
17
0I
0J
#2810000
1!
07
1I
19!
10!
1C
1)!
1J
1+
0i
0c
0'!
0$!
0z
1`
1d
01!
14!
0"!
1!!
1{
z3
16
0~
1"!
1|
0.
0#!
0/
1#!
1~
1/
1.
#2820000
0!
17
0I
0J
#2830000
1!
07
1I
1J
#2840000
0!
17
0I
0J
#2850000
1!
07
1I
1J
#2860000
0!
17
0I
09!
00!
0C
0)!
0J
0+
#2870000
1!
07
1I
1J
#2880000
0!
17
0I
0J
#2890000
1!
07
1I
1J
#2900000
0!
17
0I
0J
#2910000
1!
07
1I
19!
10!
1C
1)!
1J
1+
1e
1c
1$!
1f
0d
13!
04!
15
z6
#2920000
0!
17
0I
0J
#2930000
1!
07
1I
1J
#2940000
0!
17
0I
0J
#2950000
1!
07
1I
1J
#2960000
0!
17
0I
09!
00!
0C
0)!
0J
0+
#2970000
1!
07
1I
1J
#2980000
0!
17
0I
0J
#2990000
1!
07
1I
1J
#3000000
0!
17
0I
0J
#3010000
1!
07
1I
19!
10!
1C
1)!
1J
1+
1g
0e
1'!
1z
1h
0$!
0f
12!
03!
0|
0!!
0{
14
z5
#3020000
0!
17
0I
0J
#3030000
1!
07
1I
1J
#3040000
0!
17
0I
0J
#3050000
1!
07
1I
1J
#3060000
0!
17
0I
09!
00!
0C
0)!
0J
0+
#3070000
1!
07
1I
1J
#3080000
0!
17
0I
0J
#3090000
1!
07
1I
1J
#3100000
0!
17
0I
0J
#3110000
1!
07
1I
19!
10!
1C
1)!
1J
1+
1i
0g
1$!
0`
0h
11!
02!
13
z4
#3120000
0!
17
0I
0J
#3130000
1!
07
1I
1J
#3140000
0!
17
0I
0J
#3150000
1!
07
1I
1J
#3160000
0!
17
0I
09!
00!
0C
0)!
0J
0+
#3170000
1!
07
1I
1J
#3180000
0!
17
0I
0J
#3190000
1!
07
1I
1J
#3200000
0!
17
0I
0J
#3210000
1!
07
1I
19!
10!
1C
1)!
1J
1+
0i
0c
0'!
0$!
0z
1`
1d
01!
14!
0"!
1!!
1{
z3
16
0~
1"!
1|
0.
0#!
0/
1#!
1~
1/
1.
#3220000
0!
17
0I
0J
#3230000
1!
07
1I
1J
#3240000
0!
17
0I
0J
#3250000
1!
07
1I
1J
#3260000
0!
17
0I
09!
00!
0C
0)!
0J
0+
#3270000
1!
07
1I
1J
#3280000
0!
17
0I
0J
#3290000
1!
07
1I
1J
#3300000
0!
17
0I
0J
#3310000
1!
07
1I
19!
10!
1C
1)!
1J
1+
1e
1c
1$!
1f
0d
13!
04!
15
z6
#3320000
0!
17
0I
0J
#3330000
1!
07
1I
1J
#3340000
0!
17
0I
0J
#3350000
1!
07
1I
1J
#3360000
0!
17
0I
09!
00!
0C
0)!
0J
0+
#3370000
1!
07
1I
1J
#3380000
0!
17
0I
0J
#3390000
1!
07
1I
1J
#3400000
0!
17
0I
0J
#3410000
1!
07
1I
19!
10!
1C
1)!
1J
1+
1g
0e
1'!
1z
1h
0$!
0f
12!
03!
0|
0!!
0{
14
z5
#3420000
0!
17
0I
0J
#3430000
1!
07
1I
1J
#3440000
0!
17
0I
0J
#3450000
1!
07
1I
1J
#3460000
0!
17
0I
09!
00!
0C
0)!
0J
0+
#3470000
1!
07
1I
1J
#3480000
0!
17
0I
0J
#3490000
1!
07
1I
1J
#3500000
0!
17
0I
0J
#3510000
1!
07
1I
19!
10!
1C
1)!
1J
1+
1i
0g
1$!
0`
0h
11!
02!
13
z4
#3520000
0!
17
0I
0J
#3530000
1!
07
1I
1J
#3540000
0!
17
0I
0J
#3550000
1!
07
1I
1J
#3560000
0!
17
0I
09!
00!
0C
0)!
0J
0+
#3570000
1!
07
1I
1J
#3580000
0!
17
0I
0J
#3590000
1!
07
1I
1J
#3600000
0!
17
0I
0J
#3610000
1!
07
1I
19!
10!
1C
1)!
1J
1+
0i
0c
0'!
0$!
0z
1`
1d
01!
14!
0"!
1!!
1{
z3
16
0~
1"!
1|
0.
0#!
0/
1#!
1~
1/
1.
#3620000
0!
17
0I
0J
#3630000
1!
07
1I
1J
#3640000
0!
17
0I
0J
#3650000
1!
07
1I
1J
#3660000
0!
17
0I
09!
00!
0C
0)!
0J
0+
#3670000
1!
07
1I
1J
#3680000
0!
17
0I
0J
#3690000
1!
07
1I
1J
#3700000
0!
17
0I
0J
#3710000
1!
07
1I
19!
10!
1C
1)!
1J
1+
1e
1c
1$!
1f
0d
13!
04!
15
z6
#3720000
0!
17
0I
0J
#3730000
1!
07
1I
1J
#3740000
0!
17
0I
0J
#3750000
1!
07
1I
1J
#3760000
0!
17
0I
09!
00!
0C
0)!
0J
0+
#3770000
1!
07
1I
1J
#3780000
0!
17
0I
0J
#3790000
1!
07
1I
1J
#3800000
0!
17
0I
0J
#3810000
1!
07
1I
19!
10!
1C
1)!
1J
1+
1g
0e
1'!
1z
1h
0$!
0f
12!
03!
0|
0!!
0{
14
z5
#3820000
0!
17
0I
0J
#3830000
1!
07
1I
1J
#3840000
0!
17
0I
0J
#3850000
1!
07
1I
1J
#3860000
0!
17
0I
09!
00!
0C
0)!
0J
0+
#3870000
1!
07
1I
1J
#3880000
0!
17
0I
0J
#3890000
1!
07
1I
1J
#3900000
0!
17
0I
0J
#3910000
1!
07
1I
19!
10!
1C
1)!
1J
1+
1i
0g
1$!
0`
0h
11!
02!
13
z4
#3920000
0!
17
0I
0J
#3930000
1!
07
1I
1J
#3940000
0!
17
0I
0J
#3950000
1!
07
1I
1J
#3960000
0!
17
0I
09!
00!
0C
0)!
0J
0+
#3970000
1!
07
1I
1J
#3980000
0!
17
0I
0J
#3990000
1!
07
1I
1J
#4000000
0!
17
0I
0J
#4010000
1!
07
1I
19!
10!
1C
1)!
1J
1+
0i
0c
0'!
0$!
0z
1`
1d
01!
14!
0"!
1!!
1{
z3
16
0~
1"!
1|
0.
0#!
0/
1#!
1~
1/
1.
#4020000
0!
17
0I
0J
#4030000
1!
07
1I
1J
#4040000
0!
17
0I
0J
#4050000
1!
07
1I
1J
#4060000
0!
17
0I
09!
00!
0C
0)!
0J
0+
#4070000
1!
07
1I
1J
#4080000
0!
17
0I
0J
#4090000
1!
07
1I
1J
#4100000
0!
17
0I
0J
#4110000
1!
07
1I
19!
10!
1C
1)!
1J
1+
1e
1c
1$!
1f
0d
13!
04!
15
z6
#4120000
0!
17
0I
0J
#4130000
1!
07
1I
1J
#4140000
0!
17
0I
0J
#4150000
1!
07
1I
1J
#4160000
0!
17
0I
09!
00!
0C
0)!
0J
0+
#4170000
1!
07
1I
1J
#4180000
0!
17
0I
0J
#4190000
1!
07
1I
1J
#4200000
0!
17
0I
0J
#4210000
1!
07
1I
19!
10!
1C
1)!
1J
1+
1g
0e
1'!
1z
1h
0$!
0f
12!
03!
0|
0!!
0{
14
z5
#4220000
0!
17
0I
0J
#4230000
1!
07
1I
1J
#4240000
0!
17
0I
0J
#4250000
1!
07
1I
1J
#4260000
0!
17
0I
09!
00!
0C
0)!
0J
0+
#4270000
1!
07
1I
1J
#4280000
0!
17
0I
0J
#4290000
1!
07
1I
1J
#4300000
0!
17
0I
0J
#4310000
1!
07
1I
19!
10!
1C
1)!
1J
1+
1i
0g
1$!
0`
0h
11!
02!
13
z4
#4320000
0!
17
0I
0J
#4330000
1!
07
1I
1J
#4340000
0!
17
0I
0J
#4350000
1!
07
1I
1J
#4360000
0!
17
0I
09!
00!
0C
0)!
0J
0+
#4370000
1!
07
1I
1J
#4380000
0!
17
0I
0J
#4390000
1!
07
1I
1J
#4400000
0!
17
0I
0J
#4410000
1!
07
1I
19!
10!
1C
1)!
1J
1+
0i
0c
0'!
0$!
0z
1`
1d
01!
14!
0"!
1!!
1{
z3
16
0~
1"!
1|
0.
0#!
0/
1#!
1~
1/
1.
#4420000
0!
17
0I
0J
#4430000
1!
07
1I
1J
#4440000
0!
17
0I
0J
#4450000
1!
07
1I
1J
#4460000
0!
17
0I
09!
00!
0C
0)!
0J
0+
#4470000
1!
07
1I
1J
#4480000
0!
17
0I
0J
#4490000
1!
07
1I
1J
#4500000
0!
17
0I
0J
#4510000
1!
07
1I
19!
10!
1C
1)!
1J
1+
1e
1c
1$!
1f
0d
13!
04!
15
z6
#4520000
0!
17
0I
0J
#4530000
1!
07
1I
1J
#4540000
0!
17
0I
0J
#4550000
1!
07
1I
1J
#4560000
0!
17
0I
09!
00!
0C
0)!
0J
0+
#4570000
1!
07
1I
1J
#4580000
0!
17
0I
0J
#4590000
1!
07
1I
1J
#4600000
0!
17
0I
0J
#4610000
1!
07
1I
19!
10!
1C
1)!
1J
1+
1g
0e
1'!
1z
1h
0$!
0f
12!
03!
0|
0!!
0{
14
z5
#4620000
0!
17
0I
0J
#4630000
1!
07
1I
1J
#4640000
0!
17
0I
0J
#4650000
1!
07
1I
1J
#4660000
0!
17
0I
09!
00!
0C
0)!
0J
0+
#4670000
1!
07
1I
1J
#4680000
0!
17
0I
0J
#4690000
1!
07
1I
1J
#4700000
0!
17
0I
0J
#4710000
1!
07
1I
19!
10!
1C
1)!
1J
1+
1i
0g
1$!
0`
0h
11!
02!
13
z4
#4720000
0!
17
0I
0J
#4730000
1!
07
1I
1J
#4740000
0!
17
0I
0J
#4750000
1!
07
1I
1J
#4760000
0!
17
0I
09!
00!
0C
0)!
0J
0+
#4770000
1!
07
1I
1J
#4780000
0!
17
0I
0J
#4790000
1!
07
1I
1J
#4800000
0!
17
0I
0J
#4810000
1!
07
1I
19!
10!
1C
1)!
1J
1+
0i
0c
0'!
0$!
0z
1`
1d
01!
14!
0"!
1!!
1{
z3
16
0~
1"!
1|
0.
0#!
0/
1#!
1~
1/
1.
#4820000
0!
17
0I
0J
#4830000
1!
07
1I
1J
#4840000
0!
17
0I
0J
#4850000
1!
07
1I
1J
#4860000
0!
17
0I
09!
00!
0C
0)!
0J
0+
#4870000
1!
07
1I
1J
#4880000
0!
17
0I
0J
#4890000
1!
07
1I
1J
#4900000
0!
17
0I
0J
