leds/simulation/qsim/infoleds.msim.vcd
$comment
	File created using the following command:
		vcd file infoleds.msim.vcd -direction
$end
$date
	Mon Dec 01 17:28:38 2025
$end
$version
	ModelSim Version 10.1d
$end
$timescale
	1ps
$end
$scope module contador_384_vlg_vec_tst $end
$var reg 1 ! clk $end
$var reg 1 " enable $end
$var reg 1 # reset $end
$var wire 1 $ count [8] $end
$var wire 1 % count [7] $end
$var wire 1 & count [6] $end
$var wire 1 ' count [5] $end
$var wire 1 ( count [4] $end
$var wire 1 ) count [3] $end
$var wire 1 * count [2] $end
$var wire 1 + count [1] $end
$var wire 1 , count [0] $end
$var wire 1 - done $end
$var wire 1 . sampler $end
$scope module i1 $end
$var wire 1 / gnd $end
$var wire 1 0 vcc $end
$var wire 1 1 unknown $end
$var tri1 1 2 devclrn $end
$var tri1 1 3 devpor $end
$var tri1 1 4 devoe $end
$var wire 1 5 count[0]~output_o $end
$var wire 1 6 count[1]~output_o $end
$var wire 1 7 count[2]~output_o $end
$var wire 1 8 count[3]~output_o $end
$var wire 1 9 count[4]~output_o $end
$var wire 1 : count[5]~output_o $end
$var wire 1 ; count[6]~output_o $end
$var wire 1 < count[7]~output_o $end
$var wire 1 = count[8]~output_o $end
$var wire 1 > done~output_o $end
$var wire 1 ? clk~input_o $end
$var wire 1 @ clk~inputclkctrl_outclk $end
$var wire 1 A cnt[1]~11 $end
$var wire 1 B cnt[2]~12_combout $end
$var wire 1 C reset~input_o $end
$var wire 1 D reset~inputclkctrl_outclk $end
$var wire 1 E cnt[2]~13 $end
$var wire 1 F cnt[3]~15 $end
$var wire 1 G cnt[4]~17 $end
$var wire 1 H cnt[5]~18_combout $end
$var wire 1 I cnt[5]~19 $end
$var wire 1 J cnt[6]~20_combout $end
$var wire 1 K cnt[6]~21 $end
$var wire 1 L cnt[7]~22_combout $end
$var wire 1 M cnt[7]~23 $end
$var wire 1 N cnt[8]~24_combout $end
$var wire 1 O cnt[3]~14_combout $end
$var wire 1 P Equal0~0_combout $end
$var wire 1 Q Equal0~1_combout $end
$var wire 1 R cnt[8]~8_combout $end
$var wire 1 S cnt[0]~9_combout $end
$var wire 1 T cnt[1]~10_combout $end
$var wire 1 U cnt[4]~16_combout $end
$var wire 1 V enable~input_o $end
$var wire 1 W activo~0_combout $end
$var wire 1 X activo~1_combout $end
$var wire 1 Y activo~q $end
$var wire 1 Z done~0_combout $end
$var wire 1 [ cnt [8] $end
$var wire 1 \ cnt [7] $end
$var wire 1 ] cnt [6] $end
$var wire 1 ^ cnt [5] $end
$var wire 1 _ cnt [4] $end
$var wire 1 ` cnt [3] $end
$var wire 1 a cnt [2] $end
$var wire 1 b cnt [1] $end
$var wire 1 c cnt [0] $end
$upscope $end
$upscope $end
$enddefinitions $end
#0
$dumpvars
0!
1"
0#
0,
0+
0*
0)
0(
0'
0&
0%
0$
0-
x.
0/
10
x1
12
13
14
05
06
07
08
09
0:
0;
0<
0=
0>
0?
0@
0A
0B
0C
0D
1E
0F
1G
0H
0I
0J
1K
0L
0M
0N
0O
0P
0Q
0R
0S
0T
0U
1V
1W
1X
0Y
0Z
0c
0b
0a
0`
0_
0^
0]
0\
0[
$end
#10000
1!
1?
1@
0.
1Y
1R
1S
#20000
0!
0?
0@
1.
#30000
1!
1?
1@
0.
1c
0S
1T
15
1,
#40000
0!
0?
0@
1.
#50000
1!
1?
1@
0.
1b
0c
1S
16
05
1+
0,
#60000
0!
0?
0@
1.
#70000
1!
1?
1@
0.
1c
0S
1A
0T
15
1,
1B
#80000
0!
0?
0@
1.
#90000
1!
1?
1@
0.
0b
0c
1a
0A
1S
0E
0B
06
05
17
0+
0,
1*
1E
1B
1O
0O
#100000
0!
0?
0@
1.
#110000
1!
1?
1@
0.
1c
0S
1T
15
1,
#120000
0!
0?
0@
1.
#130000
1!
1?
1@
0.
1b
0c
1S
16
05
1+
0,
#140000
0!
0?
0@
1.
#150000
1!
1?
1@
0.
1c
0S
1A
0T
15
1,
0E
0B
1O
#160000
0!
0?
0@
1.
#170000
1!
1?
1@
0.
0b
0c
1`
0a
0A
1S
1F
0O
1E
1B
06
05
18
07
0+
0,
1)
0*
0B
1U
0F
1O
0U
#180000
0!
0?
0@
1.
#190000
1!
1?
1@
0.
1c
0S
1T
15
1,
#200000
0!
0?
0@
1.
#210000
1!
1?
1@
0.
1b
0c
1S
16
05
1+
0,
#220000
0!
0?
0@
1.
#230000
1!
1?
1@
0.
1c
0S
1A
0T
15
1,
1B
#240000
0!
0?
0@
1.
#250000
1!
1?
1@
0.
0b
0c
1a
0A
1S
0E
0B
06
05
17
0+
0,
1*
1E
1B
1F
0O
0F
1O
1U
0U
#260000
0!
0?
0@
1.
#270000
1!
1?
1@
0.
1c
0S
1T
15
1,
#280000
0!
0?
0@
1.
#290000
1!
1?
1@
0.
1b
0c
1S
16
05
1+
0,
#300000
0!
0?
0@
1.
#310000
1!
1?
1@
0.
1c
0S
1P
1A
0T
15
1,
0E
0B
1F
0O
1U
#320000
0!
0?
0@
1.
#330000
1!
1?
1@
0.
1_
0b
0c
0`
0a
0G
0U
0P
0A
1S
0F
1O
1E
1B
19
06
05
08
07
1(
0+
0,
0)
0*
1H
0B
1G
1U
0O
0H
#340000
0!
0?
0@
1.
#350000
1!
1?
1@
0.
1c
0S
1T
15
1,
#360000
0!
0?
0@
1.
#370000
1!
1?
1@
0.
1b
0c
1S
16
05
1+
0,
#380000
0!
0?
0@
1.
#390000
1!
1?
1@
0.
1c
0S
1A
0T
15
1,
1B
#400000
0!
0?
0@
1.
#410000
1!
1?
1@
0.
0b
0c
1a
0A
1S
0E
0B
06
05
17
0+
0,
1*
1E
1B
1O
0O
#420000
0!
0?
0@
1.
#430000
1!
1?
1@
0.
1c
0S
1T
15
1,
#440000
0!
0?
0@
1.
#450000
1!
1?
1@
0.
1b
0c
1S
16
05
1+
0,
#460000
0!
0?
0@
1.
#470000
1!
1?
1@
0.
1c
0S
1A
0T
15
1,
0E
0B
1O
#480000
0!
0?
0@
1.
#490000
1!
1?
1@
0.
0b
0c
1`
0a
0A
1S
1F
0O
1E
1B
06
05
18
07
0+
0,
1)
0*
0B
0G
0U
0F
1O
1H
1G
1U
0H
#500000
0!
0?
0@
1.
#510000
1!
1?
1@
0.
1c
0S
1T
15
1,
#520000
0!
0?
0@
1.
#530000
1!
1?
1@
0.
1b
0c
1S
16
05
1+
0,
#540000
0!
0?
0@
1.
#550000
1!
1?
1@
0.
1c
0S
1A
0T
15
1,
1B
#560000
0!
0?
0@
1.
#570000
1!
1?
1@
0.
0b
0c
1a
0A
1S
0E
0B
06
05
17
0+
0,
1*
1E
1B
1F
0O
0F
1O
0G
0U
1G
1U
1H
0H
#580000
0!
0?
0@
1.
#590000
1!
1?
1@
0.
1c
0S
1T
15
1,
#600000
0!
0?
0@
1.
#610000
1!
1?
1@
0.
1b
0c
1S
16
05
1+
0,
#620000
0!
0?
0@
1.
#630000
1!
1?
1@
0.
1c
0S
1P
1A
0T
15
1,
0E
0B
1F
0O
0G
0U
1H
#640000
0!
0?
0@
1.
#650000
1!
1?
1@
0.
0_
0b
0c
0`
1^
0a
1G
1U
0P
0A
1S
0F
1O
1I
0H
1E
1B
09
06
05
08
1:
07
0(
0+
0,
0)
1'
0*
0I
1H
0B
0U
1J
0O
0J
#660000
0!
0?
0@
1.
#670000
1!
1?
1@
0.
1c
0S
1T
15
1,
#680000
0!
0?
0@
1.
#690000
1!
1?
1@
0.
1b
0c
1S
16
05
1+
0,
#700000
0!
0?
0@
1.
#710000
1!
1?
1@
0.
1c
0S
1A
0T
15
1,
1B
#720000
0!
0?
0@
1.
#730000
1!
1?
1@
0.
0b
0c
1a
0A
1S
0E
0B
06
05
17
0+
0,
1*
1E
1B
1O
0O
#740000
0!
0?
0@
1.
#750000
1!
1?
1@
0.
1c
0S
1T
15
1,
#760000
0!
0?
0@
1.
#770000
1!
1?
1@
0.
1b
0c
1S
16
05
1+
0,
#780000
0!
0?
0@
1.
#790000
1!
1?
1@
0.
1c
0S
1A
0T
15
1,
0E
0B
1O
#800000
0!
0?
0@
1.
#810000
1!
1?
1@
0.
0b
0c
1`
0a
0A
1S
1F
0O
1E
1B
06
05
18
07
0+
0,
1)
0*
0B
1U
0F
1O
0U
#820000
0!
0?
0@
1.
#830000
1!
1?
1@
0.
1c
0S
1T
15
1,
#840000
0!
0?
0@
1.
#850000
1!
1?
1@
0.
1b
0c
1S
16
05
1+
0,
#860000
0!
0?
0@
1.
#870000
1!
1?
1@
0.
1c
0S
1A
0T
15
1,
1B
#880000
0!
0?
0@
1.
#890000
1!
1?
1@
0.
0b
0c
1a
0A
1S
0E
0B
06
05
17
0+
0,
1*
1E
1B
1F
0O
0F
1O
1U
0U
#900000
0!
0?
0@
1.
#910000
1!
1?
1@
0.
1c
0S
1T
15
1,
#920000
0!
0?
0@
1.
#930000
1!
1?
1@
0.
1b
0c
1S
16
05
1+
0,
#940000
0!
0?
0@
1.
#950000
1!
1?
1@
0.
1c
0S
1P
1A
0T
15
1,
0E
0B
1F
0O
1U
#960000
0!
0?
0@
1.
#970000
1!
1?
1@
0.
1_
0b
0c
0`
0a
0G
0U
0P
0A
1S
0F
1O
1E
1B
19
06
05
08
07
1(
0+
0,
0)
0*
1I
0H
0B
1G
1U
0O
1J
0I
1H
0J
#980000
0!
0?
0@
1.
#990000
1!
1?
1@
0.
1c
0S
1T
15
1,
#1000000
0!
0?
0@
1.
#1010000
1!
1?
1@
0.
1b
0c
1S
16
05
1+
0,
#1020000
0!
0?
0@
1.
#1030000
1!
1?
1@
0.
1c
0S
1A
0T
15
1,
1B
#1040000
0!
0?
0@
1.
#1050000
1!
1?
1@
0.
0b
0c
1a
0A
1S
0E
0B
06
05
17
0+
0,
1*
1E
1B
1O
0O
#1060000
0!
0?
0@
1.
#1070000
1!
1?
1@
0.
1c
0S
1T
15
1,
#1080000
0!
0?
0@
1.
#1090000
1!
1?
1@
0.
1b
0c
1S
16
05
1+
0,
#1100000
0!
0?
0@
1.
#1110000
1!
1?
1@
0.
1c
0S
1A
0T
15
1,
0E
0B
1O
#1120000
0!
0?
0@
1.
#1130000
1!
1?
1@
0.
0b
0c
1`
0a
0A
1S
1F
0O
1E
1B
06
05
18
07
0+
0,
1)
0*
0B
0G
0U
0F
1O
1I
0H
1G
1U
1J
0I
1H
0J
#1140000
0!
0?
0@
1.
#1150000
1!
1?
1@
0.
1c
0S
1T
15
1,
#1160000
0!
0?
0@
1.
#1170000
1!
1?
1@
0.
1b
0c
1S
16
05
1+
0,
#1180000
0!
0?
0@
1.
#1190000
1!
1?
1@
0.
1c
0S
1A
0T
15
1,
1B
#1200000
0!
0?
0@
1.
#1210000
1!
1?
1@
0.
0b
0c
1a
0A
1S
0E
0B
06
05
17
0+
0,
1*
1E
1B
1F
0O
0F
1O
0G
0U
1G
1U
1I
0H
0I
1H
1J
0J
#1220000
0!
0?
0@
1.
#1230000
1!
1?
1@
0.
1c
0S
1T
15
1,
#1240000
0!
0?
0@
1.
#1250000
1!
1?
1@
0.
1b
0c
1S
16
05
1+
0,
#1260000
0!
0?
0@
1.
#1270000
1!
1?
1@
0.
1c
0S
1P
1A
0T
15
1,
0E
0B
1F
0O
0G
0U
1I
0H
1J
#1280000
0!
0?
0@
1.
#1290000
1!
1?
1@
0.
0_
0b
0c
0`
1]
0^
0a
1G
1U
0P
0A
1S
0F
1O
0K
0J
0I
1H
1E
1B
09
06
05
08
1;
0:
07
0(
0+
0,
0)
1&
0'
0*
0H
0B
0U
1L
1K
1J
0O
0L
#1300000
0!
0?
0@
1.
#1310000
1!
1?
1@
0.
1c
0S
1T
15
1,
#1320000
0!
0?
0@
1.
#1330000
1!
1?
1@
0.
1b
0c
1S
16
05
1+
0,
#1340000
0!
0?
0@
1.
#1350000
1!
1?
1@
0.
1c
0S
1A
0T
15
1,
1B
#1360000
0!
0?
0@
1.
#1370000
1!
1?
1@
0.
0b
0c
1a
0A
1S
0E
0B
06
05
17
0+
0,
1*
1E
1B
1O
0O
#1380000
0!
0?
0@
1.
#1390000
1!
1?
1@
0.
1c
0S
1T
15
1,
#1400000
0!
0?
0@
1.
#1410000
1!
1?
1@
0.
1b
0c
1S
16
05
1+
0,
#1420000
0!
0?
0@
1.
#1430000
1!
1?
1@
0.
1c
0S
1A
0T
15
1,
0E
0B
1O
#1440000
0!
0?
0@
1.
#1450000
1!
1?
1@
0.
0b
0c
1`
0a
0A
1S
1F
0O
1E
1B
06
05
18
07
0+
0,
1)
0*
0B
1U
0F
1O
0U
#1460000
0!
0?
0@
1.
#1470000
1!
1?
1@
0.
1c
0S
1T
15
1,
#1480000
0!
0?
0@
1.
#1490000
1!
1?
1@
0.
1b
0c
1S
16
05
1+
0,
#1500000
0!
0?
0@
1.
#1510000
1!
1?
1@
0.
1c
0S
1A
0T
15
1,
1B
#1520000
0!
0?
0@
1.
#1530000
1!
1?
1@
0.
0b
0c
1a
0A
1S
0E
0B
06
05
17
0+
0,
1*
1E
1B
1F
0O
0F
1O
1U
0U
#1540000
0!
0?
0@
1.
#1550000
1!
1?
1@
0.
1c
0S
1T
15
1,
#1560000
0!
0?
0@
1.
#1570000
1!
1?
1@
0.
1b
0c
1S
16
05
1+
0,
#1580000
0!
0?
0@
1.
#1590000
1!
1?
1@
0.
1c
0S
1P
1A
0T
15
1,
0E
0B
1F
0O
1U
#1600000
0!
0?
0@
1.
#1610000
1!
1?
1@
0.
1_
0b
0c
0`
0a
0G
0U
0P
0A
1S
0F
1O
1E
1B
19
06
05
08
07
1(
0+
0,
0)
0*
1H
0B
1G
1U
0O
0H
#1620000
0!
0?
0@
1.
#1630000
1!
1?
1@
0.
1c
0S
1T
15
1,
#1640000
0!
0?
0@
1.
#1650000
1!
1?
1@
0.
1b
0c
1S
16
05
1+
0,
#1660000
0!
0?
0@
1.
#1670000
1!
1?
1@
0.
1c
0S
1A
0T
15
1,
1B
#1680000
0!
0?
0@
1.
#1690000
1!
1?
1@
0.
0b
0c
1a
0A
1S
0E
0B
06
05
17
0+
0,
1*
1E
1B
1O
0O
#1700000
0!
0?
0@
1.
#1710000
1!
1?
1@
0.
1c
0S
1T
15
1,
#1720000
0!
0?
0@
1.
#1730000
1!
1?
1@
0.
1b
0c
1S
16
05
1+
0,
#1740000
0!
0?
0@
1.
#1750000
1!
1?
1@
0.
1c
0S
1A
0T
15
1,
0E
0B
1O
#1760000
0!
0?
0@
1.
#1770000
1!
1?
1@
0.
0b
0c
1`
0a
0A
1S
1F
0O
1E
1B
06
05
18
07
0+
0,
1)
0*
0B
0G
0U
0F
1O
1H
1G
1U
0H
#1780000
0!
0?
0@
1.
#1790000
1!
1?
1@
0.
1c
0S
1T
15
1,
#1800000
0!
0?
0@
1.
#1810000
1!
1?
1@
0.
1b
0c
1S
16
05
1+
0,
#1820000
0!
0?
0@
1.
#1830000
1!
1?
1@
0.
1c
0S
1A
0T
15
1,
1B
#1840000
0!
0?
0@
1.
#1850000
1!
1?
1@
0.
0b
0c
1a
0A
1S
0E
0B
06
05
17
0+
0,
1*
1E
1B
1F
0O
0F
1O
0G
0U
1G
1U
1H
0H
#1860000
0!
0?
0@
1.
#1870000
1!
1?
1@
0.
1c
0S
1T
15
1,
#1880000
0!
0?
0@
1.
#1890000
1!
1?
1@
0.
1b
0c
1S
16
05
1+
0,
#1900000
0!
0?
0@
1.
#1910000
1!
1?
1@
0.
1c
0S
1P
1A
0T
15
1,
0E
0B
1F
0O
0G
0U
1H
#1920000
0!
0?
0@
1.
#1930000
1!
1?
1@
0.
0_
0b
0c
0`
1^
0a
1G
1U
0P
0A
1S
0F
1O
1I
0H
1E
1B
09
06
05
08
1:
07
0(
0+
0,
0)
1'
0*
0I
1H
0B
0U
0K
0J
0O
1K
1J
1L
0L
#1940000
0!
0?
0@
1.
#1950000
1!
1?
1@
0.
1c
0S
1T
15
1,
#1960000
0!
0?
0@
1.
#1970000
1!
1?
1@
0.
1b
0c
1S
16
05
1+
0,
#1980000
0!
0?
0@
1.
#1990000
1!
1?
1@
0.
1c
0S
1A
0T
15
1,
1B
#2000000
0!
0?
0@
1.
#2010000
1!
1?
1@
0.
0b
0c
1a
0A
1S
0E
0B
06
05
17
0+
0,
1*
1E
1B
1O
0O
#2020000
0!
0?
0@
1.
#2030000
1!
1?
1@
0.
1c
0S
1T
15
1,
#2040000
0!
0?
0@
1.
#2050000
1!
1?
1@
0.
1b
0c
1S
16
05
1+
0,
#2060000
0!
0?
0@
1.
#2070000
1!
1?
1@
0.
1c
0S
1A
0T
15
1,
0E
0B
1O
#2080000
0!
0?
0@
1.
#2090000
1!
1?
1@
0.
0b
0c
1`
0a
0A
1S
1F
0O
1E
1B
06
05
18
07
0+
0,
1)
0*
0B
1U
0F
1O
0U
#2100000
0!
0?
0@
1.
#2110000
1!
1?
1@
0.
1c
0S
1T
15
1,
#2120000
0!
0?
0@
1.
#2130000
1!
1?
1@
0.
1b
0c
1S
16
05
1+
0,
#2140000
0!
0?
0@
1.
#2150000
1!
1?
1@
0.
1c
0S
1A
0T
15
1,
1B
#2160000
0!
0?
0@
1.
#2170000
1!
1?
1@
0.
0b
0c
1a
0A
1S
0E
0B
06
05
17
0+
0,
1*
1E
1B
1F
0O
0F
1O
1U
0U
#2180000
0!
0?
0@
1.
#2190000
1!
1?
1@
0.
1c
0S
1T
15
1,
#2200000
0!
0?
0@
1.
#2210000
1!
1?
1@
0.
1b
0c
1S
16
05
1+
0,
#2220000
0!
0?
0@
1.
#2230000
1!
1?
1@
0.
1c
0S
1P
1A
0T
15
1,
0E
0B
1F
0O
1U
#2240000
0!
0?
0@
1.
#2250000
1!
1?
1@
0.
1_
0b
0c
0`
0a
1Q
0G
0U
0P
0A
1S
0F
1O
1E
1B
19
06
05
08
07
1(
0+
0,
0)
0*
1I
0H
0B
1G
1U
0O
0K
0J
0I
1H
1L
1K
1J
0L
#2260000
0!
0?
0@
1.
#2270000
1!
1?
1@
0.
1c
0S
1T
15
1,
#2280000
0!
0?
0@
1.
#2290000
1!
1?
1@
0.
1b
0c
1S
16
05
1+
0,
#2300000
0!
0?
0@
1.
#2310000
1!
1?
1@
0.
1c
0S
1A
0T
15
1,
1B
#2320000
0!
0?
0@
1.
#2330000
1!
1?
1@
0.
0b
0c
1a
0A
1S
0E
0B
06
05
17
0+
0,
1*
1E
1B
1O
0O
#2340000
0!
0?
0@
1.
#2350000
1!
1?
1@
0.
1c
0S
1T
15
1,
#2360000
0!
0?
0@
1.
#2370000
1!
1?
1@
0.
1b
0c
1S
16
05
1+
0,
#2380000
0!
0?
0@
1.
#2390000
1!
1?
1@
0.
1c
0S
1A
0T
15
1,
0E
0B
1O
#2400000
0!
0?
0@
1.
#2410000
1!
1?
1@
0.
0b
0c
1`
0a
0A
1S
1F
0O
1E
1B
06
05
18
07
0+
0,
1)
0*
0B
0G
0U
0F
1O
1I
0H
1G
1U
0K
0J
0I
1H
1L
1K
1J
0L
#2420000
0!
0?
0@
1.
#2430000
1!
1?
1@
0.
1c
0S
1T
15
1,
#2440000
0!
0?
0@
1.
#2450000
1!
1?
1@
0.
1b
0c
1S
16
05
1+
0,
#2460000
0!
0?
0@
1.
#2470000
1!
1?
1@
0.
1c
0S
1A
0T
15
1,
1B
#2480000
0!
0?
0@
1.
#2490000
1!
1?
1@
0.
0b
0c
1a
0A
1S
0E
0B
06
05
17
0+
0,
1*
1E
1B
1F
0O
0F
1O
0G
0U
1G
1U
1I
0H
0I
1H
0K
0J
1K
1J
1L
0L
#2500000
0!
0?
0@
1.
#2510000
1!
1?
1@
0.
1c
0S
1T
15
1,
#2520000
0!
0?
0@
1.
#2530000
1!
1?
1@
0.
1b
0c
1S
16
05
1+
0,
#2540000
0!
0?
0@
1.
#2550000
1!
1?
1@
0.
1c
0S
1P
1A
0T
15
1,
0E
0B
1F
0O
0G
0U
1I
0H
0K
0J
1L
#2560000
0!
0?
0@
1.
#2570000
1!
1?
1@
0.
0_
0b
0c
0`
1\
0]
0^
0a
0Q
1G
1U
0P
0A
1S
0F
1O
1M
0L
1K
1J
0I
1H
1E
1B
09
06
05
08
1<
0;
0:
07
0(
0+
0,
0)
1%
0&
0'
0*
0H
0B
0U
1N
0M
1L
0J
0O
0N
#2580000
0!
0?
0@
1.
#2590000
1!
1?
1@
0.
1c
0S
1T
15
1,
#2600000
0!
0?
0@
1.
#2610000
1!
1?
1@
0.
1b
0c
1S
16
05
1+
0,
#2620000
0!
0?
0@
1.
#2630000
1!
1?
1@
0.
1c
0S
1A
0T
15
1,
1B
#2640000
0!
0?
0@
1.
#2650000
1!
1?
1@
0.
0b
0c
1a
0A
1S
0E
0B
06
05
17
0+
0,
1*
1E
1B
1O
0O
#2660000
0!
0?
0@
1.
#2670000
1!
1?
1@
0.
1c
0S
1T
15
1,
#2680000
0!
0?
0@
1.
#2690000
1!
1?
1@
0.
1b
0c
1S
16
05
1+
0,
#2700000
0!
0?
0@
1.
#2710000
1!
1?
1@
0.
1c
0S
1A
0T
15
1,
0E
0B
1O
#2720000
0!
0?
0@
1.
#2730000
1!
1?
1@
0.
0b
0c
1`
0a
0A
1S
1F
0O
1E
1B
06
05
18
07
0+
0,
1)
0*
0B
1U
0F
1O
0U
#2740000
0!
0?
0@
1.
#2750000
1!
1?
1@
0.
1c
0S
1T
15
1,
#2760000
0!
0?
0@
1.
#2770000
1!
1?
1@
0.
1b
0c
1S
16
05
1+
0,
#2780000
0!
0?
0@
1.
#2790000
1!
1?
1@
0.
1c
0S
1A
0T
15
1,
1B
#2800000
0!
0?
0@
1.
#2810000
1!
1?
1@
0.
0b
0c
1a
0A
1S
0E
0B
06
05
17
0+
0,
1*
1E
1B
1F
0O
0F
1O
1U
0U
#2820000
0!
0?
0@
1.
#2830000
1!
1?
1@
0.
1c
0S
1T
15
1,
#2840000
0!
0?
0@
1.
#2850000
1!
1?
1@
0.
1b
0c
1S
16
05
1+
0,
#2860000
0!
0?
0@
1.
#2870000
1!
1?
1@
0.
1c
0S
1P
1A
0T
15
1,
0E
0B
1F
0O
1U
#2880000
0!
0?
0@
1.
#2890000
1!
1?
1@
0.
1_
0b
0c
0`
0a
0G
0U
0P
0A
1S
0F
1O
1E
1B
19
06
05
08
07
1(
0+
0,
0)
0*
1H
0B
1G
1U
0O
0H
#2900000
0!
0?
0@
1.
#2910000
1!
1?
1@
0.
1c
0S
1T
15
1,
#2920000
0!
0?
0@
1.
#2930000
1!
1?
1@
0.
1b
0c
1S
16
05
1+
0,
#2940000
0!
0?
0@
1.
#2950000
1!
1?
1@
0.
1c
0S
1A
0T
15
1,
1B
#2960000
0!
0?
0@
1.
#2970000
1!
1?
1@
0.
0b
0c
1a
0A
1S
0E
0B
06
05
17
0+
0,
1*
1E
1B
1O
0O
#2980000
0!
0?
0@
1.
#2990000
1!
1?
1@
0.
1c
0S
1T
15
1,
#3000000
0!
0?
0@
1.
#3010000
1!
1?
1@
0.
1b
0c
1S
16
05
1+
0,
#3020000
0!
0?
0@
1.
#3030000
1!
1?
1@
0.
1c
0S
1A
0T
15
1,
0E
0B
1O
#3040000
0!
0?
0@
1.
#3050000
1!
1?
1@
0.
0b
0c
1`
0a
0A
1S
1F
0O
1E
1B
06
05
18
07
0+
0,
1)
0*
0B
0G
0U
0F
1O
1H
1G
1U
0H
#3060000
0!
0?
0@
1.
#3070000
1!
1?
1@
0.
1c
0S
1T
15
1,
#3080000
0!
0?
0@
1.
#3090000
1!
1?
1@
0.
1b
0c
1S
16
05
1+
0,
#3100000
0!
0?
0@
1.
#3110000
1!
1?
1@
0.
1c
0S
1A
0T
15
1,
1B
#3120000
0!
0?
0@
1.
#3130000
1!
1?
1@
0.
0b
0c
1a
0A
1S
0E
0B
06
05
17
0+
0,
1*
1E
1B
1F
0O
0F
1O
0G
0U
1G
1U
1H
0H
#3140000
0!
0?
0@
1.
#3150000
1!
1?
1@
0.
1c
0S
1T
15
1,
#3160000
0!
0?
0@
1.
#3170000
1!
1?
1@
0.
1b
0c
1S
16
05
1+
0,
#3180000
0!
0?
0@
1.
#3190000
1!
1?
1@
0.
1c
0S
1P
1A
0T
15
1,
0E
0B
1F
0O
0G
0U
1H
#3200000
0!
0?
0@
1.
#3210000
1!
1?
1@
0.
0_
0b
0c
0`
1^
0a
1G
1U
0P
0A
1S
0F
1O
1I
0H
1E
1B
09
06
05
08
1:
07
0(
0+
0,
0)
1'
0*
0I
1H
0B
0U
1J
0O
0J
#3220000
0!
0?
0@
1.
#3230000
1!
1?
1@
0.
1c
0S
1T
15
1,
#3240000
0!
0?
0@
1.
#3250000
1!
1?
1@
0.
1b
0c
1S
16
05
1+
0,
#3260000
0!
0?
0@
1.
#3270000
1!
1?
1@
0.
1c
0S
1A
0T
15
1,
1B
#3280000
0!
0?
0@
1.
#3290000
1!
1?
1@
0.
0b
0c
1a
0A
1S
0E
0B
06
05
17
0+
0,
1*
1E
1B
1O
0O
#3300000
0!
0?
0@
1.
#3310000
1!
1?
1@
0.
1c
0S
1T
15
1,
#3320000
0!
0?
0@
1.
#3330000
1!
1?
1@
0.
1b
0c
1S
16
05
1+
0,
#3340000
0!
0?
0@
1.
#3350000
1!
1?
1@
0.
1c
0S
1A
0T
15
1,
0E
0B
1O
#3360000
0!
0?
0@
1.
#3370000
1!
1?
1@
0.
0b
0c
1`
0a
0A
1S
1F
0O
1E
1B
06
05
18
07
0+
0,
1)
0*
0B
1U
0F
1O
0U
#3380000
0!
0?
0@
1.
#3390000
1!
1?
1@
0.
1c
0S
1T
15
1,
#3400000
0!
0?
0@
1.
#3410000
1!
1?
1@
0.
1b
0c
1S
16
05
1+
0,
#3420000
0!
0?
0@
1.
#3430000
1!
1?
1@
0.
1c
0S
1A
0T
15
1,
1B
#3440000
0!
0?
0@
1.
#3450000
1!
1?
1@
0.
0b
0c
1a
0A
1S
0E
0B
06
05
17
0+
0,
1*
1E
1B
1F
0O
0F
1O
1U
0U
#3460000
0!
0?
0@
1.
#3470000
1!
1?
1@
0.
1c
0S
1T
15
1,
#3480000
0!
0?
0@
1.
#3490000
1!
1?
1@
0.
1b
0c
1S
16
05
1+
0,
#3500000
0!
0?
0@
1.
#3510000
1!
1?
1@
0.
1c
0S
1P
1A
0T
15
1,
0E
0B
1F
0O
1U
#3520000
0!
0?
0@
1.
#3530000
1!
1?
1@
0.
1_
0b
0c
0`
0a
0G
0U
0P
0A
1S
0F
1O
1E
1B
19
06
05
08
07
1(
0+
0,
0)
0*
1I
0H
0B
1G
1U
0O
1J
0I
1H
0J
#3540000
0!
0?
0@
1.
#3550000
1!
1?
1@
0.
1c
0S
1T
15
1,
#3560000
0!
0?
0@
1.
#3570000
1!
1?
1@
0.
1b
0c
1S
16
05
1+
0,
#3580000
0!
0?
0@
1.
#3590000
1!
1?
1@
0.
1c
0S
1A
0T
15
1,
1B
#3600000
0!
0?
0@
1.
#3610000
1!
1?
1@
0.
0b
0c
1a
0A
1S
0E
0B
06
05
17
0+
0,
1*
1E
1B
1O
0O
#3620000
0!
0?
0@
1.
#3630000
1!
1?
1@
0.
1c
0S
1T
15
1,
#3640000
0!
0?
0@
1.
#3650000
1!
1?
1@
0.
1b
0c
1S
16
05
1+
0,
#3660000
0!
0?
0@
1.
#3670000
1!
1?
1@
0.
1c
0S
1A
0T
15
1,
0E
0B
1O
#3680000
0!
0?
0@
1.
#3690000
1!
1?
1@
0.
0b
0c
1`
0a
0A
1S
1F
0O
1E
1B
06
05
18
07
0+
0,
1)
0*
0B
0G
0U
0F
1O
1I
0H
1G
1U
1J
0I
1H
0J
#3700000
0!
0?
0@
1.
#3710000
1!
1?
1@
0.
1c
0S
1T
15
1,
#3720000
0!
0?
0@
1.
#3730000
1!
1?
1@
0.
1b
0c
1S
16
05
1+
0,
#3740000
0!
0?
0@
1.
#3750000
1!
1?
1@
0.
1c
0S
1A
0T
15
1,
1B
#3760000
0!
0?
0@
1.
#3770000
1!
1?
1@
0.
0b
0c
1a
0A
1S
0E
0B
06
05
17
0+
0,
1*
1E
1B
1F
0O
0F
1O
0G
0U
1G
1U
1I
0H
0I
1H
1J
0J
#3780000
0!
0?
0@
1.
#3790000
1!
1?
1@
0.
1c
0S
1T
15
1,
#3800000
0!
0?
0@
1.
#3810000
1!
1?
1@
0.
1b
0c
1S
16
05
1+
0,
#3820000
0!
0?
0@
1.
#3830000
1!
1?
1@
0.
1c
0S
1P
1A
0T
15
1,
0E
0B
1F
0O
0G
0U
1I
0H
1J
#3840000
0!
0?
0@
1.
#3850000
1!
1?
1@
0.
0_
0b
0c
0`
1]
0^
0a
1G
1U
0P
0A
1S
0F
1O
0K
0J
0I
1H
1E
1B
09
06
05
08
1;
0:
07
0(
0+
0,
0)
1&
0'
0*
0H
0B
0U
1M
0L
1K
1J
0O
1N
0M
1L
0N
#3860000
0!
0?
0@
1.
#3870000
1!
1?
1@
0.
1c
0S
1T
15
1,
#3880000
0!
0?
0@
1.
#3890000
1!
1?
1@
0.
1b
0c
1S
16
05
1+
0,
#3900000
0!
0?
0@
1.
#3910000
1!
1?
1@
0.
1c
0S
1A
0T
15
1,
1B
#3920000
0!
0?
0@
1.
#3930000
1!
1?
1@
0.
0b
0c
1a
0A
1S
0E
0B
06
05
17
0+
0,
1*
1E
1B
1O
0O
#3940000
0!
0?
0@
1.
#3950000
1!
1?
1@
0.
1c
0S
1T
15
1,
#3960000
0!
0?
0@
1.
#3970000
1!
1?
1@
0.
1b
0c
1S
16
05
1+
0,
#3980000
0!
0?
0@
1.
#3990000
1!
1?
1@
0.
1c
0S
1A
0T
15
1,
0E
0B
1O
#4000000
0!
0?
0@
1.
