leds/simulation/qsim/infoleds.msim.vcd
$comment
	File created using the following command:
		vcd file infoleds.msim.vcd -direction
$end
$date
	Mon Nov 24 23:17:37 2025
$end
$version
	ModelSim Version 10.1d
$end
$timescale
	1ps
$end
$scope module mux2_vlg_vec_tst $end
$var reg 1 ! c0 $end
$var reg 1 " c1 $end
$var reg 1 # sel $end
$var wire 1 $ y $end
$var wire 1 % sampler $end
$scope module i1 $end
$var wire 1 & gnd $end
$var wire 1 ' vcc $end
$var wire 1 ( unknown $end
$var tri1 1 ) devclrn $end
$var tri1 1 * devpor $end
$var tri1 1 + devoe $end
$var wire 1 , y~output_o $end
$var wire 1 - c1~input_o $end
$var wire 1 . c0~input_o $end
$var wire 1 / sel~input_o $end
$var wire 1 0 y~0_combout $end
$upscope $end
$upscope $end
$enddefinitions $end
#0
$dumpvars
0!
0"
0#
0$
x%
0&
1'
x(
1)
1*
1+
0,
0-
0.
0/
00
$end
#70000
1!
1.
0%
10
1,
1$
#120000
0!
0.
1%
00
0,
0$
#150000
1"
1-
0%
#230000
1#
1/
1%
10
1,
1$
#240000
1!
1.
0%
#300000
0#
0/
1%
#320000
0"
0!
0-
0.
0%
00
0,
0$
#390000
1#
1/
1%
#420000
1"
1-
0%
10
1,
1$
#460000
0"
0-
1%
00
0,
0$
#500000
1!
1.
0%
#530000
0#
0/
1%
10
1,
1$
#650000
0!
0.
0%
00
0,
0$
